\relax 
\babel@aux{english}{}
\@writefile{lof}{\contentsline {figure}{\numberline {1}{\ignorespaces Time for LU-factorization of both lower and upper Hessenberg matrix as a function of matrix size, $n$.}}{2}}
\newlabel{fig:time}{{1}{2}}
