5 	 0.00
10 	 0.00
15 	 0.00
20 	 0.00
25 	 0.00
30 	 0.00
35 	 0.00
40 	 0.00
45 	 0.00
50 	 0.01
55 	 0.01
60 	 0.01
65 	 0.02
70 	 0.02
75 	 0.03
80 	 0.03
85 	 0.04
90 	 0.05
95 	 0.06
100 	 0.06
