<?xml version="1.0" encoding="utf-8"  standalone="no"?>
<svg 
 width="600" height="480"
 viewBox="0 0 600 480"
 xmlns="http://www.w3.org/2000/svg"
 xmlns:xlink="http://www.w3.org/1999/xlink"
>

<title>Gnuplot</title>
<desc>Produced by GNUPLOT 5.2 patchlevel 2 </desc>

<g id="gnuplot_canvas">

<rect x="0" y="0" width="600" height="480" fill="none"/>
<defs>

	<circle id='gpDot' r='0.5' stroke-width='0.5'/>
	<path id='gpPt0' stroke-width='0.222' stroke='currentColor' d='M-1,0 h2 M0,-1 v2'/>
	<path id='gpPt1' stroke-width='0.222' stroke='currentColor' d='M-1,-1 L1,1 M1,-1 L-1,1'/>
	<path id='gpPt2' stroke-width='0.222' stroke='currentColor' d='M-1,0 L1,0 M0,-1 L0,1 M-1,-1 L1,1 M-1,1 L1,-1'/>
	<rect id='gpPt3' stroke-width='0.222' stroke='currentColor' x='-1' y='-1' width='2' height='2'/>
	<rect id='gpPt4' stroke-width='0.222' stroke='currentColor' fill='currentColor' x='-1' y='-1' width='2' height='2'/>
	<circle id='gpPt5' stroke-width='0.222' stroke='currentColor' cx='0' cy='0' r='1'/>
	<use xlink:href='#gpPt5' id='gpPt6' fill='currentColor' stroke='none'/>
	<path id='gpPt7' stroke-width='0.222' stroke='currentColor' d='M0,-1.33 L-1.33,0.67 L1.33,0.67 z'/>
	<use xlink:href='#gpPt7' id='gpPt8' fill='currentColor' stroke='none'/>
	<use xlink:href='#gpPt7' id='gpPt9' stroke='currentColor' transform='rotate(180)'/>
	<use xlink:href='#gpPt9' id='gpPt10' fill='currentColor' stroke='none'/>
	<use xlink:href='#gpPt3' id='gpPt11' stroke='currentColor' transform='rotate(45)'/>
	<use xlink:href='#gpPt11' id='gpPt12' fill='currentColor' stroke='none'/>
	<path id='gpPt13' stroke-width='0.222' stroke='currentColor' d='M0,1.330 L1.265,0.411 L0.782,-1.067 L-0.782,-1.076 L-1.265,0.411 z'/>
	<use xlink:href='#gpPt13' id='gpPt14' fill='currentColor' stroke='none'/>
	<filter id='textbox' filterUnits='objectBoundingBox' x='0' y='0' height='1' width='1'>
	  <feFlood flood-color='white' flood-opacity='1' result='bgnd'/>
	  <feComposite in='SourceGraphic' in2='bgnd' operator='atop'/>
	</filter>
	<filter id='greybox' filterUnits='objectBoundingBox' x='0' y='0' height='1' width='1'>
	  <feFlood flood-color='lightgrey' flood-opacity='1' result='grey'/>
	  <feComposite in='SourceGraphic' in2='grey' operator='atop'/>
	</filter>
</defs>
<g fill="none" color="white" stroke="black" stroke-width="1.00" stroke-linecap="butt" stroke-linejoin="miter">
</g>
<g fill="none" color="black" stroke="currentColor" stroke-width="1.00" stroke-linecap="butt" stroke-linejoin="miter">
</g>
<g fill="none" color="black" stroke="black" stroke-width="0.50" stroke-linecap="butt" stroke-linejoin="miter">
</g>
<g fill="none" color="gray" stroke="currentColor" stroke-width="0.50" stroke-linecap="butt" stroke-linejoin="miter">
	<path stroke='gray' stroke-dasharray='2,4' class="gridline"  d='M71.9,388.5 L575.0,388.5  '/></g>
<g fill="none" color="gray" stroke="gray" stroke-width="1.00" stroke-linecap="butt" stroke-linejoin="miter">
</g>
<g fill="none" color="black" stroke="currentColor" stroke-width="1.00" stroke-linecap="butt" stroke-linejoin="miter">
	<path stroke='black'  d='M71.9,388.5 L80.9,388.5 M575.0,388.5 L566.0,388.5  '/>	<g transform="translate(63.6,392.4)" stroke="none" fill="black" font-family="Arial" font-size="12.00"  text-anchor="end">
		<text><tspan font-family="Arial" >-1</tspan></text>
	</g>
</g>
<g fill="none" color="black" stroke="currentColor" stroke-width="1.00" stroke-linecap="butt" stroke-linejoin="miter">
</g>
<g fill="none" color="black" stroke="black" stroke-width="0.50" stroke-linecap="butt" stroke-linejoin="miter">
</g>
<g fill="none" color="gray" stroke="currentColor" stroke-width="0.50" stroke-linecap="butt" stroke-linejoin="miter">
	<path stroke='gray' stroke-dasharray='2,4' class="gridline"  d='M71.9,308.9 L575.0,308.9  '/></g>
<g fill="none" color="gray" stroke="gray" stroke-width="1.00" stroke-linecap="butt" stroke-linejoin="miter">
</g>
<g fill="none" color="black" stroke="currentColor" stroke-width="1.00" stroke-linecap="butt" stroke-linejoin="miter">
	<path stroke='black'  d='M71.9,308.9 L80.9,308.9 M575.0,308.9 L566.0,308.9  '/>	<g transform="translate(63.6,312.8)" stroke="none" fill="black" font-family="Arial" font-size="12.00"  text-anchor="end">
		<text><tspan font-family="Arial" >-0.5</tspan></text>
	</g>
</g>
<g fill="none" color="black" stroke="currentColor" stroke-width="1.00" stroke-linecap="butt" stroke-linejoin="miter">
</g>
<g fill="none" color="black" stroke="black" stroke-width="0.50" stroke-linecap="butt" stroke-linejoin="miter">
</g>
<g fill="none" color="gray" stroke="currentColor" stroke-width="0.50" stroke-linecap="butt" stroke-linejoin="miter">
	<path stroke='gray' stroke-dasharray='2,4' class="gridline"  d='M71.9,229.2 L575.0,229.2  '/></g>
<g fill="none" color="gray" stroke="gray" stroke-width="1.00" stroke-linecap="butt" stroke-linejoin="miter">
</g>
<g fill="none" color="black" stroke="currentColor" stroke-width="1.00" stroke-linecap="butt" stroke-linejoin="miter">
	<path stroke='black'  d='M71.9,229.2 L80.9,229.2 M575.0,229.2 L566.0,229.2  '/>	<g transform="translate(63.6,233.1)" stroke="none" fill="black" font-family="Arial" font-size="12.00"  text-anchor="end">
		<text><tspan font-family="Arial" > 0</tspan></text>
	</g>
</g>
<g fill="none" color="black" stroke="currentColor" stroke-width="1.00" stroke-linecap="butt" stroke-linejoin="miter">
</g>
<g fill="none" color="black" stroke="black" stroke-width="0.50" stroke-linecap="butt" stroke-linejoin="miter">
</g>
<g fill="none" color="gray" stroke="currentColor" stroke-width="0.50" stroke-linecap="butt" stroke-linejoin="miter">
	<path stroke='gray' stroke-dasharray='2,4' class="gridline"  d='M71.9,149.6 L575.0,149.6  '/></g>
<g fill="none" color="gray" stroke="gray" stroke-width="1.00" stroke-linecap="butt" stroke-linejoin="miter">
</g>
<g fill="none" color="black" stroke="currentColor" stroke-width="1.00" stroke-linecap="butt" stroke-linejoin="miter">
	<path stroke='black'  d='M71.9,149.6 L80.9,149.6 M575.0,149.6 L566.0,149.6  '/>	<g transform="translate(63.6,153.5)" stroke="none" fill="black" font-family="Arial" font-size="12.00"  text-anchor="end">
		<text><tspan font-family="Arial" > 0.5</tspan></text>
	</g>
</g>
<g fill="none" color="black" stroke="currentColor" stroke-width="1.00" stroke-linecap="butt" stroke-linejoin="miter">
</g>
<g fill="none" color="black" stroke="black" stroke-width="0.50" stroke-linecap="butt" stroke-linejoin="miter">
</g>
<g fill="none" color="gray" stroke="currentColor" stroke-width="0.50" stroke-linecap="butt" stroke-linejoin="miter">
	<path stroke='gray' stroke-dasharray='2,4' class="gridline"  d='M71.9,70.0 L575.0,70.0  '/></g>
<g fill="none" color="gray" stroke="gray" stroke-width="1.00" stroke-linecap="butt" stroke-linejoin="miter">
</g>
<g fill="none" color="black" stroke="currentColor" stroke-width="1.00" stroke-linecap="butt" stroke-linejoin="miter">
	<path stroke='black'  d='M71.9,70.0 L80.9,70.0 M575.0,70.0 L566.0,70.0  '/>	<g transform="translate(63.6,73.9)" stroke="none" fill="black" font-family="Arial" font-size="12.00"  text-anchor="end">
		<text><tspan font-family="Arial" > 1</tspan></text>
	</g>
</g>
<g fill="none" color="black" stroke="currentColor" stroke-width="1.00" stroke-linecap="butt" stroke-linejoin="miter">
</g>
<g fill="none" color="black" stroke="black" stroke-width="0.50" stroke-linecap="butt" stroke-linejoin="miter">
</g>
<g fill="none" color="gray" stroke="currentColor" stroke-width="0.50" stroke-linecap="butt" stroke-linejoin="miter">
	<path stroke='gray' stroke-dasharray='2,4' class="gridline"  d='M90.5,404.4 L90.5,54.1  '/></g>
<g fill="none" color="gray" stroke="gray" stroke-width="1.00" stroke-linecap="butt" stroke-linejoin="miter">
</g>
<g fill="none" color="black" stroke="currentColor" stroke-width="1.00" stroke-linecap="butt" stroke-linejoin="miter">
	<path stroke='black'  d='M90.5,404.4 L90.5,395.4 M90.5,54.1 L90.5,63.1  '/>	<g transform="translate(90.5,426.3)" stroke="none" fill="black" font-family="Arial" font-size="12.00"  text-anchor="middle">
		<text><tspan font-family="Arial" > 0</tspan></text>
	</g>
</g>
<g fill="none" color="black" stroke="currentColor" stroke-width="1.00" stroke-linecap="butt" stroke-linejoin="miter">
</g>
<g fill="none" color="black" stroke="black" stroke-width="0.50" stroke-linecap="butt" stroke-linejoin="miter">
</g>
<g fill="none" color="gray" stroke="currentColor" stroke-width="0.50" stroke-linecap="butt" stroke-linejoin="miter">
	<path stroke='gray' stroke-dasharray='2,4' class="gridline"  d='M164.7,404.4 L164.7,54.1  '/></g>
<g fill="none" color="gray" stroke="gray" stroke-width="1.00" stroke-linecap="butt" stroke-linejoin="miter">
</g>
<g fill="none" color="black" stroke="currentColor" stroke-width="1.00" stroke-linecap="butt" stroke-linejoin="miter">
	<path stroke='black'  d='M164.7,404.4 L164.7,395.4 M164.7,54.1 L164.7,63.1  '/>	<g transform="translate(164.7,426.3)" stroke="none" fill="black" font-family="Arial" font-size="12.00"  text-anchor="middle">
		<text><tspan font-family="Arial" > 2</tspan></text>
	</g>
</g>
<g fill="none" color="black" stroke="currentColor" stroke-width="1.00" stroke-linecap="butt" stroke-linejoin="miter">
</g>
<g fill="none" color="black" stroke="black" stroke-width="0.50" stroke-linecap="butt" stroke-linejoin="miter">
</g>
<g fill="none" color="gray" stroke="currentColor" stroke-width="0.50" stroke-linecap="butt" stroke-linejoin="miter">
	<path stroke='gray' stroke-dasharray='2,4' class="gridline"  d='M238.9,404.4 L238.9,54.1  '/></g>
<g fill="none" color="gray" stroke="gray" stroke-width="1.00" stroke-linecap="butt" stroke-linejoin="miter">
</g>
<g fill="none" color="black" stroke="currentColor" stroke-width="1.00" stroke-linecap="butt" stroke-linejoin="miter">
	<path stroke='black'  d='M238.9,404.4 L238.9,395.4 M238.9,54.1 L238.9,63.1  '/>	<g transform="translate(238.9,426.3)" stroke="none" fill="black" font-family="Arial" font-size="12.00"  text-anchor="middle">
		<text><tspan font-family="Arial" > 4</tspan></text>
	</g>
</g>
<g fill="none" color="black" stroke="currentColor" stroke-width="1.00" stroke-linecap="butt" stroke-linejoin="miter">
</g>
<g fill="none" color="black" stroke="black" stroke-width="0.50" stroke-linecap="butt" stroke-linejoin="miter">
</g>
<g fill="none" color="gray" stroke="currentColor" stroke-width="0.50" stroke-linecap="butt" stroke-linejoin="miter">
	<path stroke='gray' stroke-dasharray='2,4' class="gridline"  d='M313.1,404.4 L313.1,54.1  '/></g>
<g fill="none" color="gray" stroke="gray" stroke-width="1.00" stroke-linecap="butt" stroke-linejoin="miter">
</g>
<g fill="none" color="black" stroke="currentColor" stroke-width="1.00" stroke-linecap="butt" stroke-linejoin="miter">
	<path stroke='black'  d='M313.1,404.4 L313.1,395.4 M313.1,54.1 L313.1,63.1  '/>	<g transform="translate(313.1,426.3)" stroke="none" fill="black" font-family="Arial" font-size="12.00"  text-anchor="middle">
		<text><tspan font-family="Arial" > 6</tspan></text>
	</g>
</g>
<g fill="none" color="black" stroke="currentColor" stroke-width="1.00" stroke-linecap="butt" stroke-linejoin="miter">
</g>
<g fill="none" color="black" stroke="black" stroke-width="0.50" stroke-linecap="butt" stroke-linejoin="miter">
</g>
<g fill="none" color="gray" stroke="currentColor" stroke-width="0.50" stroke-linecap="butt" stroke-linejoin="miter">
	<path stroke='gray' stroke-dasharray='2,4' class="gridline"  d='M387.3,404.4 L387.3,54.1  '/></g>
<g fill="none" color="gray" stroke="gray" stroke-width="1.00" stroke-linecap="butt" stroke-linejoin="miter">
</g>
<g fill="none" color="black" stroke="currentColor" stroke-width="1.00" stroke-linecap="butt" stroke-linejoin="miter">
	<path stroke='black'  d='M387.3,404.4 L387.3,395.4 M387.3,54.1 L387.3,63.1  '/>	<g transform="translate(387.3,426.3)" stroke="none" fill="black" font-family="Arial" font-size="12.00"  text-anchor="middle">
		<text><tspan font-family="Arial" > 8</tspan></text>
	</g>
</g>
<g fill="none" color="black" stroke="currentColor" stroke-width="1.00" stroke-linecap="butt" stroke-linejoin="miter">
</g>
<g fill="none" color="black" stroke="black" stroke-width="0.50" stroke-linecap="butt" stroke-linejoin="miter">
</g>
<g fill="none" color="gray" stroke="currentColor" stroke-width="0.50" stroke-linecap="butt" stroke-linejoin="miter">
	<path stroke='gray' stroke-dasharray='2,4' class="gridline"  d='M461.5,404.4 L461.5,54.1  '/></g>
<g fill="none" color="gray" stroke="gray" stroke-width="1.00" stroke-linecap="butt" stroke-linejoin="miter">
</g>
<g fill="none" color="black" stroke="currentColor" stroke-width="1.00" stroke-linecap="butt" stroke-linejoin="miter">
	<path stroke='black'  d='M461.5,404.4 L461.5,395.4 M461.5,54.1 L461.5,63.1  '/>	<g transform="translate(461.5,426.3)" stroke="none" fill="black" font-family="Arial" font-size="12.00"  text-anchor="middle">
		<text><tspan font-family="Arial" > 10</tspan></text>
	</g>
</g>
<g fill="none" color="black" stroke="currentColor" stroke-width="1.00" stroke-linecap="butt" stroke-linejoin="miter">
</g>
<g fill="none" color="black" stroke="black" stroke-width="0.50" stroke-linecap="butt" stroke-linejoin="miter">
</g>
<g fill="none" color="gray" stroke="currentColor" stroke-width="0.50" stroke-linecap="butt" stroke-linejoin="miter">
	<path stroke='gray' stroke-dasharray='2,4' class="gridline"  d='M535.7,404.4 L535.7,54.1  '/></g>
<g fill="none" color="gray" stroke="gray" stroke-width="1.00" stroke-linecap="butt" stroke-linejoin="miter">
</g>
<g fill="none" color="black" stroke="currentColor" stroke-width="1.00" stroke-linecap="butt" stroke-linejoin="miter">
	<path stroke='black'  d='M535.7,404.4 L535.7,395.4 M535.7,54.1 L535.7,63.1  '/>	<g transform="translate(535.7,426.3)" stroke="none" fill="black" font-family="Arial" font-size="12.00"  text-anchor="middle">
		<text><tspan font-family="Arial" > 12</tspan></text>
	</g>
</g>
<g fill="none" color="black" stroke="currentColor" stroke-width="1.00" stroke-linecap="butt" stroke-linejoin="miter">
</g>
<g fill="none" color="black" stroke="currentColor" stroke-width="1.00" stroke-linecap="butt" stroke-linejoin="miter">
	<path stroke='black'  d='M71.9,54.1 L71.9,404.4 L575.0,404.4 L575.0,54.1 L71.9,54.1 Z  '/></g>
<g fill="none" color="black" stroke="currentColor" stroke-width="1.00" stroke-linecap="butt" stroke-linejoin="miter">
	<g transform="translate(16.3,229.3) rotate(270)" stroke="none" fill="black" font-family="Arial" font-size="12.00"  text-anchor="middle">
		<text><tspan font-family="Arial" >y</tspan></text>
	</g>
</g>
<g fill="none" color="black" stroke="currentColor" stroke-width="1.00" stroke-linecap="butt" stroke-linejoin="miter">
	<g transform="translate(323.4,453.3)" stroke="none" fill="black" font-family="Arial" font-size="12.00"  text-anchor="middle">
		<text><tspan font-family="Arial" >x</tspan></text>
	</g>
</g>
<g fill="none" color="black" stroke="currentColor" stroke-width="1.00" stroke-linecap="butt" stroke-linejoin="miter">
	<g transform="translate(323.4,31.0)" stroke="none" fill="black" font-family="Arial" font-size="12.00"  text-anchor="middle">
		<text><tspan font-family="Arial" >Derivative cubic spline between data points from sin</tspan></text>
	</g>
</g>
	<g id="gnuplot_plot_1" ><title>Interpolated</title>
<g fill="none" color="black" stroke="currentColor" stroke-width="1.00" stroke-linecap="butt" stroke-linejoin="miter">
	<g transform="translate(264.6,465.9)" stroke="none" fill="black" font-family="Arial" font-size="12.00"  text-anchor="end">
		<text><tspan font-family="Arial" >Interpolated</tspan></text>
	</g>
</g>
<g fill="none" color="black" stroke="currentColor" stroke-width="1.00" stroke-linecap="butt" stroke-linejoin="miter">
	<path stroke='rgb(255,   0,   0)'  d='M272.9,462.0 L315.1,462.0 M90.5,70.2 L92.8,70.5 L95.1,71.4 L97.5,73.0 L99.8,75.1 L102.2,77.8
		L104.5,81.2 L106.9,85.2 L109.2,89.8 L111.5,95.0 L113.9,100.8 L116.2,107.2 L118.6,113.9 L120.9,121.0
		L123.3,128.5 L125.6,136.3 L127.9,144.5 L130.3,153.1 L132.6,162.0 L135.0,171.2 L137.3,180.8 L139.7,190.7
		L142.0,200.8 L144.3,210.8 L146.7,220.8 L149.0,230.7 L151.4,240.6 L153.7,250.4 L156.1,260.2 L158.4,269.9
		L160.7,279.5 L163.1,289.1 L165.4,298.6 L167.8,307.7 L170.1,316.3 L172.5,324.5 L174.8,332.3 L177.1,339.6
		L179.5,346.5 L181.8,352.9 L184.2,358.9 L186.5,364.5 L188.9,369.6 L191.2,374.2 L193.5,378.2 L195.9,381.5
		L198.2,384.1 L200.6,386.2 L202.9,387.5 L205.3,388.3 L207.6,388.4 L209.9,387.9 L212.3,386.7 L214.6,384.9
		L217.0,382.6 L219.3,379.6 L221.7,376.1 L224.0,372.1 L226.3,367.4 L228.7,362.2 L231.0,356.5 L233.4,350.1
		L235.7,343.2 L238.1,335.8 L240.4,327.9 L242.7,319.8 L245.1,311.5 L247.4,302.8 L249.8,294.0 L252.1,284.8
		L254.5,275.4 L256.8,265.8 L259.1,255.8 L261.5,245.7 L263.8,235.3 L266.2,225.1 L268.5,215.1 L270.9,205.2
		L273.2,195.5 L275.5,185.9 L277.9,176.5 L280.2,167.2 L282.6,158.1 L284.9,149.2 L287.3,140.4 L289.6,132.1
		L291.9,124.2 L294.3,116.9 L296.6,110.0 L299.0,103.7 L301.3,97.9 L303.7,92.6 L306.0,87.8 L308.3,83.5
		L310.7,79.7 L313.0,76.5 L315.4,73.9 L317.7,72.0 L320.1,70.7 L322.4,70.0 L324.7,70.0 L327.1,70.7
		L329.4,72.0 L331.8,73.9 L334.1,76.5 L336.5,79.7 L338.8,83.5 L341.1,87.8 L343.5,92.6 L345.8,97.9
		L348.2,103.7 L350.5,110.0 L352.9,116.9 L355.2,124.2 L357.5,132.1 L359.9,140.4 L362.2,149.2 L364.6,158.1
		L366.9,167.2 L369.3,176.5 L371.6,185.9 L373.9,195.5 L376.3,205.2 L378.6,215.1 L381.0,225.1 L383.3,235.3
		L385.7,245.7 L388.0,255.8 L390.3,265.8 L392.7,275.4 L395.0,284.8 L397.4,294.0 L399.7,302.8 L402.1,311.5
		L404.4,319.8 L406.7,327.9 L409.1,335.8 L411.4,343.2 L413.8,350.1 L416.1,356.5 L418.5,362.2 L420.8,367.4
		L423.1,372.1 L425.5,376.1 L427.8,379.6 L430.2,382.6 L432.5,384.9 L434.9,386.7 L437.2,387.9 L439.5,388.4
		L441.9,388.3 L444.2,387.5 L446.6,386.2 L448.9,384.1 L451.3,381.5 L453.6,378.2 L455.9,374.2 L458.3,369.6
		L460.6,364.5 L463.0,358.9 L465.3,352.9 L467.7,346.5 L470.0,339.6 L472.3,332.3 L474.7,324.5 L477.0,316.3
		L479.4,307.7 L481.7,298.6 L484.1,289.1 L486.4,279.5 L488.7,269.9 L491.1,260.2 L493.4,250.4 L495.8,240.6
		L498.1,230.7 L500.5,220.8 L502.8,210.8 L505.1,200.8 L507.5,190.7 L509.8,180.8 L512.2,171.2 L514.5,162.0
		L516.9,153.1 L519.2,144.5 L521.5,136.3 L523.9,128.5 L526.2,121.0 L528.6,113.9 L530.9,107.2 L533.3,100.8
		L535.6,95.0 L537.9,89.8 L540.3,85.2 L542.6,81.2 L545.0,77.8 L547.3,75.1 L549.7,73.0 L552.0,71.4
		L554.3,70.5 L556.7,70.2  '/></g>
	</g>
	<g id="gnuplot_plot_2" ><title>-cos(x)+1</title>
<g fill="none" color="black" stroke="currentColor" stroke-width="1.00" stroke-linecap="butt" stroke-linejoin="miter">
	<g transform="translate(423.0,465.9)" stroke="none" fill="black" font-family="Arial" font-size="12.00"  text-anchor="end">
		<text><tspan font-family="Arial" >-cos(x)+1</tspan></text>
	</g>
</g>
<g fill="none" color="black" stroke="currentColor" stroke-width="1.00" stroke-linecap="butt" stroke-linejoin="miter">
	<use xlink:href='#gpPt1' transform='translate(90.5,70.0) scale(4.50)' color='rgb(  0,   0,   0)'/>
	<use xlink:href='#gpPt1' transform='translate(115.0,103.6) scale(4.50)' color='rgb(  0,   0,   0)'/>
	<use xlink:href='#gpPt1' transform='translate(139.5,190.2) scale(4.50)' color='rgb(  0,   0,   0)'/>
	<use xlink:href='#gpPt1' transform='translate(164.1,293.2) scale(4.50)' color='rgb(  0,   0,   0)'/>
	<use xlink:href='#gpPt1' transform='translate(188.6,369.3) scale(4.50)' color='rgb(  0,   0,   0)'/>
	<use xlink:href='#gpPt1' transform='translate(213.1,386.3) scale(4.50)' color='rgb(  0,   0,   0)'/>
	<use xlink:href='#gpPt1' transform='translate(237.7,337.1) scale(4.50)' color='rgb(  0,   0,   0)'/>
	<use xlink:href='#gpPt1' transform='translate(262.2,242.4) scale(4.50)' color='rgb(  0,   0,   0)'/>
	<use xlink:href='#gpPt1' transform='translate(286.8,142.2) scale(4.50)' color='rgb(  0,   0,   0)'/>
	<use xlink:href='#gpPt1' transform='translate(311.3,78.7) scale(4.50)' color='rgb(  0,   0,   0)'/>
	<use xlink:href='#gpPt1' transform='translate(335.8,78.7) scale(4.50)' color='rgb(  0,   0,   0)'/>
	<use xlink:href='#gpPt1' transform='translate(360.4,142.2) scale(4.50)' color='rgb(  0,   0,   0)'/>
	<use xlink:href='#gpPt1' transform='translate(384.9,242.4) scale(4.50)' color='rgb(  0,   0,   0)'/>
	<use xlink:href='#gpPt1' transform='translate(409.5,337.1) scale(4.50)' color='rgb(  0,   0,   0)'/>
	<use xlink:href='#gpPt1' transform='translate(434.0,386.3) scale(4.50)' color='rgb(  0,   0,   0)'/>
	<use xlink:href='#gpPt1' transform='translate(458.5,369.3) scale(4.50)' color='rgb(  0,   0,   0)'/>
	<use xlink:href='#gpPt1' transform='translate(483.1,293.2) scale(4.50)' color='rgb(  0,   0,   0)'/>
	<use xlink:href='#gpPt1' transform='translate(507.6,190.2) scale(4.50)' color='rgb(  0,   0,   0)'/>
	<use xlink:href='#gpPt1' transform='translate(532.1,103.6) scale(4.50)' color='rgb(  0,   0,   0)'/>
	<use xlink:href='#gpPt1' transform='translate(556.7,70.0) scale(4.50)' color='rgb(  0,   0,   0)'/>
	<use xlink:href='#gpPt1' transform='translate(452.4,462.0) scale(4.50)' color='rgb(  0,   0,   0)'/>
</g>
	</g>
<g fill="none" color="white" stroke="rgb(  0,   0,   0)" stroke-width="2.00" stroke-linecap="butt" stroke-linejoin="miter">
</g>
<g fill="none" color="black" stroke="currentColor" stroke-width="2.00" stroke-linecap="butt" stroke-linejoin="miter">
</g>
<g fill="none" color="black" stroke="black" stroke-width="1.00" stroke-linecap="butt" stroke-linejoin="miter">
</g>
<g fill="none" color="black" stroke="currentColor" stroke-width="1.00" stroke-linecap="butt" stroke-linejoin="miter">
	<path stroke='black'  d='M71.9,54.1 L71.9,404.4 L575.0,404.4 L575.0,54.1 L71.9,54.1 Z  '/></g>
<g fill="none" color="black" stroke="currentColor" stroke-width="1.00" stroke-linecap="butt" stroke-linejoin="miter">
</g>
</g>
</svg>

