<?xml version="1.0" encoding="utf-8"  standalone="no"?>
<svg 
 width="600" height="480"
 viewBox="0 0 600 480"
 xmlns="http://www.w3.org/2000/svg"
 xmlns:xlink="http://www.w3.org/1999/xlink"
>

<title>Gnuplot</title>
<desc>Produced by GNUPLOT 5.2 patchlevel 2 </desc>

<g id="gnuplot_canvas">

<rect x="0" y="0" width="600" height="480" fill="none"/>
<defs>

	<circle id='gpDot' r='0.5' stroke-width='0.5'/>
	<path id='gpPt0' stroke-width='0.222' stroke='currentColor' d='M-1,0 h2 M0,-1 v2'/>
	<path id='gpPt1' stroke-width='0.222' stroke='currentColor' d='M-1,-1 L1,1 M1,-1 L-1,1'/>
	<path id='gpPt2' stroke-width='0.222' stroke='currentColor' d='M-1,0 L1,0 M0,-1 L0,1 M-1,-1 L1,1 M-1,1 L1,-1'/>
	<rect id='gpPt3' stroke-width='0.222' stroke='currentColor' x='-1' y='-1' width='2' height='2'/>
	<rect id='gpPt4' stroke-width='0.222' stroke='currentColor' fill='currentColor' x='-1' y='-1' width='2' height='2'/>
	<circle id='gpPt5' stroke-width='0.222' stroke='currentColor' cx='0' cy='0' r='1'/>
	<use xlink:href='#gpPt5' id='gpPt6' fill='currentColor' stroke='none'/>
	<path id='gpPt7' stroke-width='0.222' stroke='currentColor' d='M0,-1.33 L-1.33,0.67 L1.33,0.67 z'/>
	<use xlink:href='#gpPt7' id='gpPt8' fill='currentColor' stroke='none'/>
	<use xlink:href='#gpPt7' id='gpPt9' stroke='currentColor' transform='rotate(180)'/>
	<use xlink:href='#gpPt9' id='gpPt10' fill='currentColor' stroke='none'/>
	<use xlink:href='#gpPt3' id='gpPt11' stroke='currentColor' transform='rotate(45)'/>
	<use xlink:href='#gpPt11' id='gpPt12' fill='currentColor' stroke='none'/>
	<path id='gpPt13' stroke-width='0.222' stroke='currentColor' d='M0,1.330 L1.265,0.411 L0.782,-1.067 L-0.782,-1.076 L-1.265,0.411 z'/>
	<use xlink:href='#gpPt13' id='gpPt14' fill='currentColor' stroke='none'/>
	<filter id='textbox' filterUnits='objectBoundingBox' x='0' y='0' height='1' width='1'>
	  <feFlood flood-color='white' flood-opacity='1' result='bgnd'/>
	  <feComposite in='SourceGraphic' in2='bgnd' operator='atop'/>
	</filter>
	<filter id='greybox' filterUnits='objectBoundingBox' x='0' y='0' height='1' width='1'>
	  <feFlood flood-color='lightgrey' flood-opacity='1' result='grey'/>
	  <feComposite in='SourceGraphic' in2='grey' operator='atop'/>
	</filter>
</defs>
<g fill="none" color="white" stroke="black" stroke-width="1.00" stroke-linecap="butt" stroke-linejoin="miter">
</g>
<g fill="none" color="black" stroke="currentColor" stroke-width="1.00" stroke-linecap="butt" stroke-linejoin="miter">
</g>
<g fill="none" color="black" stroke="black" stroke-width="0.50" stroke-linecap="butt" stroke-linejoin="miter">
</g>
<g fill="none" color="gray" stroke="currentColor" stroke-width="0.50" stroke-linecap="butt" stroke-linejoin="miter">
	<path stroke='gray' stroke-dasharray='2,4' class="gridline"  d='M71.9,404.4 L575.0,404.4  '/></g>
<g fill="none" color="gray" stroke="gray" stroke-width="1.00" stroke-linecap="butt" stroke-linejoin="miter">
</g>
<g fill="none" color="black" stroke="currentColor" stroke-width="1.00" stroke-linecap="butt" stroke-linejoin="miter">
	<path stroke='black'  d='M71.9,404.4 L80.9,404.4 M575.0,404.4 L566.0,404.4  '/>	<g transform="translate(63.6,408.3)" stroke="none" fill="black" font-family="Arial" font-size="12.00"  text-anchor="end">
		<text><tspan font-family="Arial" >-0.5</tspan></text>
	</g>
</g>
<g fill="none" color="black" stroke="currentColor" stroke-width="1.00" stroke-linecap="butt" stroke-linejoin="miter">
</g>
<g fill="none" color="black" stroke="black" stroke-width="0.50" stroke-linecap="butt" stroke-linejoin="miter">
</g>
<g fill="none" color="gray" stroke="currentColor" stroke-width="0.50" stroke-linecap="butt" stroke-linejoin="miter">
	<path stroke='gray' stroke-dasharray='2,4' class="gridline"  d='M71.9,335.7 L575.0,335.7  '/></g>
<g fill="none" color="gray" stroke="gray" stroke-width="1.00" stroke-linecap="butt" stroke-linejoin="miter">
</g>
<g fill="none" color="black" stroke="currentColor" stroke-width="1.00" stroke-linecap="butt" stroke-linejoin="miter">
	<path stroke='black'  d='M71.9,335.7 L80.9,335.7 M575.0,335.7 L566.0,335.7  '/>	<g transform="translate(63.6,339.6)" stroke="none" fill="black" font-family="Arial" font-size="12.00"  text-anchor="end">
		<text><tspan font-family="Arial" > 0</tspan></text>
	</g>
</g>
<g fill="none" color="black" stroke="currentColor" stroke-width="1.00" stroke-linecap="butt" stroke-linejoin="miter">
</g>
<g fill="none" color="black" stroke="black" stroke-width="0.50" stroke-linecap="butt" stroke-linejoin="miter">
</g>
<g fill="none" color="gray" stroke="currentColor" stroke-width="0.50" stroke-linecap="butt" stroke-linejoin="miter">
	<path stroke='gray' stroke-dasharray='2,4' class="gridline"  d='M71.9,267.0 L575.0,267.0  '/></g>
<g fill="none" color="gray" stroke="gray" stroke-width="1.00" stroke-linecap="butt" stroke-linejoin="miter">
</g>
<g fill="none" color="black" stroke="currentColor" stroke-width="1.00" stroke-linecap="butt" stroke-linejoin="miter">
	<path stroke='black'  d='M71.9,267.0 L80.9,267.0 M575.0,267.0 L566.0,267.0  '/>	<g transform="translate(63.6,270.9)" stroke="none" fill="black" font-family="Arial" font-size="12.00"  text-anchor="end">
		<text><tspan font-family="Arial" > 0.5</tspan></text>
	</g>
</g>
<g fill="none" color="black" stroke="currentColor" stroke-width="1.00" stroke-linecap="butt" stroke-linejoin="miter">
</g>
<g fill="none" color="black" stroke="black" stroke-width="0.50" stroke-linecap="butt" stroke-linejoin="miter">
</g>
<g fill="none" color="gray" stroke="currentColor" stroke-width="0.50" stroke-linecap="butt" stroke-linejoin="miter">
	<path stroke='gray' stroke-dasharray='2,4' class="gridline"  d='M71.9,198.3 L575.0,198.3  '/></g>
<g fill="none" color="gray" stroke="gray" stroke-width="1.00" stroke-linecap="butt" stroke-linejoin="miter">
</g>
<g fill="none" color="black" stroke="currentColor" stroke-width="1.00" stroke-linecap="butt" stroke-linejoin="miter">
	<path stroke='black'  d='M71.9,198.3 L80.9,198.3 M575.0,198.3 L566.0,198.3  '/>	<g transform="translate(63.6,202.2)" stroke="none" fill="black" font-family="Arial" font-size="12.00"  text-anchor="end">
		<text><tspan font-family="Arial" > 1</tspan></text>
	</g>
</g>
<g fill="none" color="black" stroke="currentColor" stroke-width="1.00" stroke-linecap="butt" stroke-linejoin="miter">
</g>
<g fill="none" color="black" stroke="black" stroke-width="0.50" stroke-linecap="butt" stroke-linejoin="miter">
</g>
<g fill="none" color="gray" stroke="currentColor" stroke-width="0.50" stroke-linecap="butt" stroke-linejoin="miter">
	<path stroke='gray' stroke-dasharray='2,4' class="gridline"  d='M71.9,129.7 L575.0,129.7  '/></g>
<g fill="none" color="gray" stroke="gray" stroke-width="1.00" stroke-linecap="butt" stroke-linejoin="miter">
</g>
<g fill="none" color="black" stroke="currentColor" stroke-width="1.00" stroke-linecap="butt" stroke-linejoin="miter">
	<path stroke='black'  d='M71.9,129.7 L80.9,129.7 M575.0,129.7 L566.0,129.7  '/>	<g transform="translate(63.6,133.6)" stroke="none" fill="black" font-family="Arial" font-size="12.00"  text-anchor="end">
		<text><tspan font-family="Arial" > 1.5</tspan></text>
	</g>
</g>
<g fill="none" color="black" stroke="currentColor" stroke-width="1.00" stroke-linecap="butt" stroke-linejoin="miter">
</g>
<g fill="none" color="black" stroke="black" stroke-width="0.50" stroke-linecap="butt" stroke-linejoin="miter">
</g>
<g fill="none" color="gray" stroke="currentColor" stroke-width="0.50" stroke-linecap="butt" stroke-linejoin="miter">
	<path stroke='gray' stroke-dasharray='2,4' class="gridline"  d='M71.9,61.0 L575.0,61.0  '/></g>
<g fill="none" color="gray" stroke="gray" stroke-width="1.00" stroke-linecap="butt" stroke-linejoin="miter">
</g>
<g fill="none" color="black" stroke="currentColor" stroke-width="1.00" stroke-linecap="butt" stroke-linejoin="miter">
	<path stroke='black'  d='M71.9,61.0 L80.9,61.0 M575.0,61.0 L566.0,61.0  '/>	<g transform="translate(63.6,64.9)" stroke="none" fill="black" font-family="Arial" font-size="12.00"  text-anchor="end">
		<text><tspan font-family="Arial" > 2</tspan></text>
	</g>
</g>
<g fill="none" color="black" stroke="currentColor" stroke-width="1.00" stroke-linecap="butt" stroke-linejoin="miter">
</g>
<g fill="none" color="black" stroke="black" stroke-width="0.50" stroke-linecap="butt" stroke-linejoin="miter">
</g>
<g fill="none" color="gray" stroke="currentColor" stroke-width="0.50" stroke-linecap="butt" stroke-linejoin="miter">
	<path stroke='gray' stroke-dasharray='2,4' class="gridline"  d='M90.5,404.4 L90.5,54.1  '/></g>
<g fill="none" color="gray" stroke="gray" stroke-width="1.00" stroke-linecap="butt" stroke-linejoin="miter">
</g>
<g fill="none" color="black" stroke="currentColor" stroke-width="1.00" stroke-linecap="butt" stroke-linejoin="miter">
	<path stroke='black'  d='M90.5,404.4 L90.5,395.4 M90.5,54.1 L90.5,63.1  '/>	<g transform="translate(90.5,426.3)" stroke="none" fill="black" font-family="Arial" font-size="12.00"  text-anchor="middle">
		<text><tspan font-family="Arial" > 0</tspan></text>
	</g>
</g>
<g fill="none" color="black" stroke="currentColor" stroke-width="1.00" stroke-linecap="butt" stroke-linejoin="miter">
</g>
<g fill="none" color="black" stroke="black" stroke-width="0.50" stroke-linecap="butt" stroke-linejoin="miter">
</g>
<g fill="none" color="gray" stroke="currentColor" stroke-width="0.50" stroke-linecap="butt" stroke-linejoin="miter">
	<path stroke='gray' stroke-dasharray='2,4' class="gridline"  d='M164.7,404.4 L164.7,54.1  '/></g>
<g fill="none" color="gray" stroke="gray" stroke-width="1.00" stroke-linecap="butt" stroke-linejoin="miter">
</g>
<g fill="none" color="black" stroke="currentColor" stroke-width="1.00" stroke-linecap="butt" stroke-linejoin="miter">
	<path stroke='black'  d='M164.7,404.4 L164.7,395.4 M164.7,54.1 L164.7,63.1  '/>	<g transform="translate(164.7,426.3)" stroke="none" fill="black" font-family="Arial" font-size="12.00"  text-anchor="middle">
		<text><tspan font-family="Arial" > 2</tspan></text>
	</g>
</g>
<g fill="none" color="black" stroke="currentColor" stroke-width="1.00" stroke-linecap="butt" stroke-linejoin="miter">
</g>
<g fill="none" color="black" stroke="black" stroke-width="0.50" stroke-linecap="butt" stroke-linejoin="miter">
</g>
<g fill="none" color="gray" stroke="currentColor" stroke-width="0.50" stroke-linecap="butt" stroke-linejoin="miter">
	<path stroke='gray' stroke-dasharray='2,4' class="gridline"  d='M238.9,404.4 L238.9,54.1  '/></g>
<g fill="none" color="gray" stroke="gray" stroke-width="1.00" stroke-linecap="butt" stroke-linejoin="miter">
</g>
<g fill="none" color="black" stroke="currentColor" stroke-width="1.00" stroke-linecap="butt" stroke-linejoin="miter">
	<path stroke='black'  d='M238.9,404.4 L238.9,395.4 M238.9,54.1 L238.9,63.1  '/>	<g transform="translate(238.9,426.3)" stroke="none" fill="black" font-family="Arial" font-size="12.00"  text-anchor="middle">
		<text><tspan font-family="Arial" > 4</tspan></text>
	</g>
</g>
<g fill="none" color="black" stroke="currentColor" stroke-width="1.00" stroke-linecap="butt" stroke-linejoin="miter">
</g>
<g fill="none" color="black" stroke="black" stroke-width="0.50" stroke-linecap="butt" stroke-linejoin="miter">
</g>
<g fill="none" color="gray" stroke="currentColor" stroke-width="0.50" stroke-linecap="butt" stroke-linejoin="miter">
	<path stroke='gray' stroke-dasharray='2,4' class="gridline"  d='M313.1,404.4 L313.1,54.1  '/></g>
<g fill="none" color="gray" stroke="gray" stroke-width="1.00" stroke-linecap="butt" stroke-linejoin="miter">
</g>
<g fill="none" color="black" stroke="currentColor" stroke-width="1.00" stroke-linecap="butt" stroke-linejoin="miter">
	<path stroke='black'  d='M313.1,404.4 L313.1,395.4 M313.1,54.1 L313.1,63.1  '/>	<g transform="translate(313.1,426.3)" stroke="none" fill="black" font-family="Arial" font-size="12.00"  text-anchor="middle">
		<text><tspan font-family="Arial" > 6</tspan></text>
	</g>
</g>
<g fill="none" color="black" stroke="currentColor" stroke-width="1.00" stroke-linecap="butt" stroke-linejoin="miter">
</g>
<g fill="none" color="black" stroke="black" stroke-width="0.50" stroke-linecap="butt" stroke-linejoin="miter">
</g>
<g fill="none" color="gray" stroke="currentColor" stroke-width="0.50" stroke-linecap="butt" stroke-linejoin="miter">
	<path stroke='gray' stroke-dasharray='2,4' class="gridline"  d='M387.3,404.4 L387.3,54.1  '/></g>
<g fill="none" color="gray" stroke="gray" stroke-width="1.00" stroke-linecap="butt" stroke-linejoin="miter">
</g>
<g fill="none" color="black" stroke="currentColor" stroke-width="1.00" stroke-linecap="butt" stroke-linejoin="miter">
	<path stroke='black'  d='M387.3,404.4 L387.3,395.4 M387.3,54.1 L387.3,63.1  '/>	<g transform="translate(387.3,426.3)" stroke="none" fill="black" font-family="Arial" font-size="12.00"  text-anchor="middle">
		<text><tspan font-family="Arial" > 8</tspan></text>
	</g>
</g>
<g fill="none" color="black" stroke="currentColor" stroke-width="1.00" stroke-linecap="butt" stroke-linejoin="miter">
</g>
<g fill="none" color="black" stroke="black" stroke-width="0.50" stroke-linecap="butt" stroke-linejoin="miter">
</g>
<g fill="none" color="gray" stroke="currentColor" stroke-width="0.50" stroke-linecap="butt" stroke-linejoin="miter">
	<path stroke='gray' stroke-dasharray='2,4' class="gridline"  d='M461.5,404.4 L461.5,54.1  '/></g>
<g fill="none" color="gray" stroke="gray" stroke-width="1.00" stroke-linecap="butt" stroke-linejoin="miter">
</g>
<g fill="none" color="black" stroke="currentColor" stroke-width="1.00" stroke-linecap="butt" stroke-linejoin="miter">
	<path stroke='black'  d='M461.5,404.4 L461.5,395.4 M461.5,54.1 L461.5,63.1  '/>	<g transform="translate(461.5,426.3)" stroke="none" fill="black" font-family="Arial" font-size="12.00"  text-anchor="middle">
		<text><tspan font-family="Arial" > 10</tspan></text>
	</g>
</g>
<g fill="none" color="black" stroke="currentColor" stroke-width="1.00" stroke-linecap="butt" stroke-linejoin="miter">
</g>
<g fill="none" color="black" stroke="black" stroke-width="0.50" stroke-linecap="butt" stroke-linejoin="miter">
</g>
<g fill="none" color="gray" stroke="currentColor" stroke-width="0.50" stroke-linecap="butt" stroke-linejoin="miter">
	<path stroke='gray' stroke-dasharray='2,4' class="gridline"  d='M535.7,404.4 L535.7,54.1  '/></g>
<g fill="none" color="gray" stroke="gray" stroke-width="1.00" stroke-linecap="butt" stroke-linejoin="miter">
</g>
<g fill="none" color="black" stroke="currentColor" stroke-width="1.00" stroke-linecap="butt" stroke-linejoin="miter">
	<path stroke='black'  d='M535.7,404.4 L535.7,395.4 M535.7,54.1 L535.7,63.1  '/>	<g transform="translate(535.7,426.3)" stroke="none" fill="black" font-family="Arial" font-size="12.00"  text-anchor="middle">
		<text><tspan font-family="Arial" > 12</tspan></text>
	</g>
</g>
<g fill="none" color="black" stroke="currentColor" stroke-width="1.00" stroke-linecap="butt" stroke-linejoin="miter">
</g>
<g fill="none" color="black" stroke="currentColor" stroke-width="1.00" stroke-linecap="butt" stroke-linejoin="miter">
	<path stroke='black'  d='M71.9,54.1 L71.9,404.4 L575.0,404.4 L575.0,54.1 L71.9,54.1 Z  '/></g>
<g fill="none" color="black" stroke="currentColor" stroke-width="1.00" stroke-linecap="butt" stroke-linejoin="miter">
	<g transform="translate(16.3,229.3) rotate(270)" stroke="none" fill="black" font-family="Arial" font-size="12.00"  text-anchor="middle">
		<text><tspan font-family="Arial" >y</tspan></text>
	</g>
</g>
<g fill="none" color="black" stroke="currentColor" stroke-width="1.00" stroke-linecap="butt" stroke-linejoin="miter">
	<g transform="translate(323.4,453.3)" stroke="none" fill="black" font-family="Arial" font-size="12.00"  text-anchor="middle">
		<text><tspan font-family="Arial" >x</tspan></text>
	</g>
</g>
<g fill="none" color="black" stroke="currentColor" stroke-width="1.00" stroke-linecap="butt" stroke-linejoin="miter">
	<g transform="translate(323.4,31.0)" stroke="none" fill="black" font-family="Arial" font-size="12.00"  text-anchor="middle">
		<text><tspan font-family="Arial" >Integrated Linear interpolation between data points from sin</tspan></text>
	</g>
</g>
	<g id="gnuplot_plot_1" ><title>Interpolated</title>
<g fill="none" color="black" stroke="currentColor" stroke-width="1.00" stroke-linecap="butt" stroke-linejoin="miter">
	<g transform="translate(264.6,465.9)" stroke="none" fill="black" font-family="Arial" font-size="12.00"  text-anchor="end">
		<text><tspan font-family="Arial" >Interpolated</tspan></text>
	</g>
</g>
<g fill="none" color="black" stroke="currentColor" stroke-width="1.00" stroke-linecap="butt" stroke-linejoin="miter">
	<path stroke='rgb(255,   0,   0)'  d='M272.9,462.0 L315.1,462.0 M90.5,335.7 L90.9,335.7 L91.4,335.7 L91.9,335.6 L92.3,335.6 L92.8,335.5
		L93.3,335.4 L93.7,335.2 L94.2,335.1 L94.7,334.9 L95.1,334.7 L95.6,334.5 L96.1,334.3 L96.5,334.0
		L97.0,333.7 L97.5,333.4 L97.9,333.1 L98.4,332.8 L98.9,332.4 L99.3,332.1 L99.8,331.7 L100.3,331.3
		L100.7,330.8 L101.2,330.4 L101.7,329.9 L102.1,329.4 L102.6,328.9 L103.1,328.4 L103.5,327.8 L104.0,327.2
		L104.5,326.6 L104.9,326.0 L105.4,325.4 L105.9,324.7 L106.3,324.0 L106.8,323.3 L107.3,322.6 L107.7,321.9
		L108.2,321.1 L108.7,320.4 L109.1,319.6 L109.6,318.7 L110.1,317.9 L110.5,317.1 L111.0,316.2 L111.5,315.3
		L111.9,314.4 L112.4,313.4 L112.9,312.5 L113.3,311.5 L113.8,310.5 L114.3,309.5 L114.7,308.4 L115.2,307.4
		L115.7,306.3 L116.1,305.2 L116.6,304.1 L117.1,303.0 L117.5,301.9 L118.0,300.8 L118.5,299.6 L118.9,298.5
		L119.4,297.3 L119.9,296.1 L120.3,294.9 L120.8,293.7 L121.3,292.5 L121.7,291.3 L122.2,290.1 L122.7,288.8
		L123.1,287.5 L123.6,286.3 L124.1,285.0 L124.5,283.7 L125.0,282.4 L125.5,281.1 L125.9,279.8 L126.4,278.4
		L126.9,277.1 L127.3,275.7 L127.8,274.3 L128.3,272.9 L128.7,271.5 L129.2,270.1 L129.7,268.7 L130.1,267.3
		L130.6,265.8 L131.1,264.4 L131.5,262.9 L132.0,261.4 L132.5,259.9 L132.9,258.4 L133.4,256.9 L133.9,255.4
		L134.3,253.8 L134.8,252.3 L135.3,250.7 L135.7,249.1 L136.2,247.6 L136.7,246.0 L137.1,244.4 L137.6,242.7
		L138.1,241.1 L138.5,239.5 L139.0,237.8 L139.5,236.1 L139.9,234.5 L140.4,232.8 L140.9,231.1 L141.3,229.4
		L141.8,227.8 L142.3,226.1 L142.7,224.5 L143.2,222.8 L143.7,221.1 L144.1,219.5 L144.6,217.8 L145.1,216.2
		L145.5,214.5 L146.0,212.9 L146.5,211.2 L146.9,209.6 L147.4,207.9 L147.9,206.3 L148.3,204.6 L148.8,203.0
		L149.3,201.3 L149.7,199.7 L150.2,198.1 L150.7,196.4 L151.1,194.8 L151.6,193.2 L152.1,191.5 L152.5,189.9
		L153.0,188.3 L153.5,186.7 L153.9,185.0 L154.4,183.4 L154.9,181.8 L155.3,180.2 L155.8,178.6 L156.3,177.0
		L156.7,175.4 L157.2,173.7 L157.7,172.1 L158.1,170.5 L158.6,168.9 L159.1,167.3 L159.5,165.7 L160.0,164.1
		L160.5,162.5 L160.9,160.9 L161.4,159.3 L161.9,157.7 L162.3,156.2 L162.8,154.6 L163.3,153.0 L163.7,151.4
		L164.2,149.8 L164.7,148.2 L165.1,146.7 L165.6,145.1 L166.1,143.6 L166.5,142.1 L167.0,140.6 L167.5,139.1
		L167.9,137.6 L168.4,136.2 L168.9,134.8 L169.3,133.3 L169.8,131.9 L170.3,130.5 L170.7,129.1 L171.2,127.8
		L171.7,126.4 L172.1,125.1 L172.6,123.7 L173.1,122.4 L173.5,121.1 L174.0,119.8 L174.5,118.6 L174.9,117.3
		L175.4,116.1 L175.9,114.9 L176.3,113.7 L176.8,112.5 L177.3,111.3 L177.7,110.1 L178.2,109.0 L178.7,107.8
		L179.1,106.7 L179.6,105.6 L180.1,104.5 L180.5,103.4 L181.0,102.3 L181.5,101.3 L181.9,100.3 L182.4,99.2
		L182.9,98.2 L183.3,97.2 L183.8,96.3 L184.3,95.3 L184.7,94.3 L185.2,93.4 L185.7,92.5 L186.1,91.6
		L186.6,90.7 L187.1,89.8 L187.5,89.0 L188.0,88.1 L188.5,87.3 L188.9,86.4 L189.4,85.7 L189.9,84.9
		L190.3,84.1 L190.8,83.4 L191.3,82.7 L191.7,82.0 L192.2,81.3 L192.7,80.7 L193.1,80.0 L193.6,79.4
		L194.1,78.8 L194.5,78.3 L195.0,77.7 L195.5,77.2 L195.9,76.7 L196.4,76.2 L196.9,75.8 L197.3,75.3
		L197.8,74.9 L198.3,74.5 L198.7,74.1 L199.2,73.8 L199.7,73.4 L200.1,73.1 L200.6,72.8 L201.1,72.6
		L201.5,72.3 L202.0,72.1 L202.5,71.9 L202.9,71.7 L203.4,71.5 L203.9,71.4 L204.3,71.2 L204.8,71.1
		L205.3,71.1 L205.7,71.0 L206.2,71.0 L206.7,70.9 L207.1,70.9 L207.6,71.0 L208.1,71.0 L208.5,71.1
		L209.0,71.2 L209.5,71.3 L209.9,71.4 L210.4,71.6 L210.9,71.7 L211.3,71.9 L211.8,72.1 L212.3,72.4
		L212.7,72.6 L213.2,72.9 L213.7,73.2 L214.1,73.5 L214.6,73.8 L215.1,74.2 L215.5,74.6 L216.0,74.9
		L216.5,75.4 L216.9,75.8 L217.4,76.2 L217.9,76.7 L218.3,77.2 L218.8,77.7 L219.3,78.2 L219.7,78.7
		L220.2,79.3 L220.7,79.9 L221.1,80.5 L221.6,81.1 L222.1,81.7 L222.5,82.4 L223.0,83.0 L223.5,83.7
		L223.9,84.4 L224.4,85.2 L224.9,85.9 L225.3,86.7 L225.8,87.5 L226.3,88.3 L226.7,89.1 L227.2,89.9
		L227.7,90.8 L228.1,91.7 L228.6,92.6 L229.1,93.5 L229.5,94.4 L230.0,95.4 L230.5,96.3 L230.9,97.3
		L231.4,98.3 L231.9,99.4 L232.3,100.4 L232.8,101.5 L233.3,102.6 L233.7,103.7 L234.2,104.8 L234.7,105.9
		L235.1,107.1 L235.6,108.3 L236.1,109.5 L236.5,110.7 L237.0,111.9 L237.5,113.2 L237.9,114.4 L238.4,115.7
		L238.9,117.0 L239.3,118.3 L239.8,119.6 L240.3,120.9 L240.7,122.2 L241.2,123.6 L241.7,124.9 L242.1,126.3
		L242.6,127.6 L243.1,129.0 L243.5,130.4 L244.0,131.7 L244.5,133.1 L244.9,134.5 L245.4,135.9 L245.9,137.4
		L246.3,138.8 L246.8,140.2 L247.3,141.7 L247.7,143.1 L248.2,144.6 L248.7,146.0 L249.1,147.5 L249.6,149.0
		L250.1,150.5 L250.5,152.0 L251.0,153.5 L251.5,155.0 L251.9,156.6 L252.4,158.1 L252.9,159.6 L253.3,161.2
		L253.8,162.8 L254.3,164.3 L254.7,165.9 L255.2,167.5 L255.7,169.1 L256.1,170.7 L256.6,172.3 L257.1,173.9
		L257.5,175.6 L258.0,177.2 L258.5,178.9 L258.9,180.5 L259.4,182.2 L259.9,183.9 L260.3,185.5 L260.8,187.2
		L261.3,188.9 L261.7,190.6 L262.2,192.4 L262.7,194.1 L263.1,195.8 L263.6,197.5 L264.1,199.2 L264.5,200.9
		L265.0,202.6 L265.5,204.3 L265.9,206.0 L266.4,207.7 L266.9,209.3 L267.3,211.0 L267.8,212.7 L268.3,214.3
		L268.7,216.0 L269.2,217.6 L269.7,219.3 L270.1,220.9 L270.6,222.5 L271.1,224.1 L271.5,225.8 L272.0,227.4
		L272.5,229.0 L272.9,230.6 L273.4,232.2 L273.9,233.8 L274.3,235.4 L274.8,237.0 L275.3,238.5 L275.7,240.1
		L276.2,241.7 L276.7,243.2 L277.1,244.8 L277.6,246.4 L278.1,247.9 L278.5,249.4 L279.0,251.0 L279.5,252.5
		L279.9,254.0 L280.4,255.6 L280.9,257.1 L281.3,258.6 L281.8,260.1 L282.3,261.6 L282.7,263.1 L283.2,264.6
		L283.7,266.1 L284.1,267.5 L284.6,269.0 L285.1,270.5 L285.5,271.9 L286.0,273.4 L286.5,274.8 L286.9,276.3
		L287.4,277.7 L287.9,279.1 L288.3,280.5 L288.8,281.9 L289.3,283.3 L289.7,284.6 L290.2,286.0 L290.7,287.3
		L291.1,288.6 L291.6,289.9 L292.1,291.1 L292.5,292.4 L293.0,293.6 L293.5,294.8 L293.9,296.0 L294.4,297.2
		L294.9,298.3 L295.3,299.5 L295.8,300.6 L296.3,301.7 L296.7,302.8 L297.2,303.9 L297.7,305.0 L298.1,306.0
		L298.6,307.0 L299.1,308.1 L299.5,309.0 L300.0,310.0 L300.5,311.0 L300.9,311.9 L301.4,312.9 L301.9,313.8
		L302.3,314.7 L302.8,315.5 L303.3,316.4 L303.7,317.2 L304.2,318.1 L304.7,318.9 L305.1,319.7 L305.6,320.4
		L306.1,321.2 L306.5,321.9 L307.0,322.7 L307.5,323.4 L307.9,324.1 L308.4,324.7 L308.9,325.4 L309.3,326.0
		L309.8,326.7 L310.3,327.3 L310.7,327.9 L311.2,328.4 L311.7,329.0 L312.1,329.5 L312.6,330.0 L313.1,330.5
		L313.5,331.0 L314.0,331.4 L314.5,331.9 L314.9,332.3 L315.4,332.7 L315.9,333.0 L316.3,333.4 L316.8,333.7
		L317.3,334.0 L317.7,334.3 L318.2,334.5 L318.7,334.7 L319.1,335.0 L319.6,335.1 L320.1,335.3 L320.5,335.5
		L321.0,335.6 L321.5,335.7 L321.9,335.8 L322.4,335.9 L322.9,335.9 L323.3,335.9 L323.8,335.9 L324.3,335.9
		L324.7,335.9 L325.2,335.8 L325.7,335.7 L326.1,335.6 L326.6,335.5 L327.1,335.3 L327.5,335.1 L328.0,335.0
		L328.5,334.7 L328.9,334.5 L329.4,334.3 L329.9,334.0 L330.3,333.7 L330.8,333.4 L331.3,333.0 L331.7,332.7
		L332.2,332.3 L332.7,331.9 L333.1,331.4 L333.6,331.0 L334.1,330.5 L334.5,330.0 L335.0,329.5 L335.5,329.0
		L335.9,328.4 L336.4,327.9 L336.9,327.3 L337.3,326.7 L337.8,326.0 L338.3,325.4 L338.7,324.7 L339.2,324.1
		L339.7,323.4 L340.1,322.7 L340.6,321.9 L341.1,321.2 L341.5,320.4 L342.0,319.7 L342.5,318.9 L342.9,318.1
		L343.4,317.2 L343.9,316.4 L344.3,315.5 L344.8,314.7 L345.3,313.8 L345.7,312.9 L346.2,311.9 L346.7,311.0
		L347.1,310.0 L347.6,309.0 L348.1,308.1 L348.5,307.0 L349.0,306.0 L349.5,305.0 L349.9,303.9 L350.4,302.8
		L350.9,301.7 L351.3,300.6 L351.8,299.5 L352.3,298.3 L352.7,297.2 L353.2,296.0 L353.7,294.8 L354.1,293.6
		L354.6,292.4 L355.1,291.1 L355.5,289.9 L356.0,288.6 L356.5,287.3 L356.9,286.0 L357.4,284.6 L357.9,283.3
		L358.3,281.9 L358.8,280.5 L359.3,279.1 L359.7,277.7 L360.2,276.3 L360.7,274.8 L361.1,273.4 L361.6,271.9
		L362.1,270.5 L362.5,269.0 L363.0,267.5 L363.5,266.1 L363.9,264.6 L364.4,263.1 L364.9,261.6 L365.3,260.1
		L365.8,258.6 L366.3,257.1 L366.7,255.6 L367.2,254.0 L367.7,252.5 L368.1,251.0 L368.6,249.4 L369.1,247.9
		L369.5,246.4 L370.0,244.8 L370.5,243.2 L370.9,241.7 L371.4,240.1 L371.9,238.5 L372.3,237.0 L372.8,235.4
		L373.3,233.8 L373.7,232.2 L374.2,230.6 L374.7,229.0 L375.1,227.4 L375.6,225.8 L376.1,224.1 L376.5,222.5
		L377.0,220.9 L377.5,219.3 L377.9,217.6 L378.4,216.0 L378.9,214.3 L379.3,212.7 L379.8,211.0 L380.3,209.3
		L380.7,207.7 L381.2,206.0 L381.7,204.3 L382.1,202.6 L382.6,200.9 L383.1,199.2 L383.5,197.5 L384.0,195.8
		L384.5,194.1 L384.9,192.4 L385.4,190.6 L385.9,188.9 L386.3,187.2 L386.8,185.5 L387.3,183.9 L387.7,182.2
		L388.2,180.5 L388.7,178.9 L389.1,177.2 L389.6,175.6 L390.1,173.9 L390.5,172.3 L391.0,170.7 L391.5,169.1
		L391.9,167.5 L392.4,165.9 L392.9,164.3 L393.3,162.8 L393.8,161.2 L394.3,159.6 L394.7,158.1 L395.2,156.6
		L395.7,155.0 L396.1,153.5 L396.6,152.0 L397.1,150.5 L397.5,149.0 L398.0,147.5 L398.5,146.0 L398.9,144.6
		L399.4,143.1 L399.9,141.7 L400.3,140.2 L400.8,138.8 L401.3,137.4 L401.7,135.9 L402.2,134.5 L402.7,133.1
		L403.1,131.7 L403.6,130.4 L404.1,129.0 L404.5,127.6 L405.0,126.3 L405.5,124.9 L405.9,123.6 L406.4,122.2
		L406.9,120.9 L407.3,119.6 L407.8,118.3 L408.3,117.0 L408.7,115.7 L409.2,114.4 L409.7,113.2 L410.1,111.9
		L410.6,110.7 L411.1,109.5 L411.5,108.3 L412.0,107.1 L412.5,105.9 L412.9,104.8 L413.4,103.7 L413.9,102.6
		L414.3,101.5 L414.8,100.4 L415.3,99.4 L415.7,98.3 L416.2,97.3 L416.7,96.3 L417.1,95.4 L417.6,94.4
		L418.1,93.5 L418.5,92.6 L419.0,91.7 L419.5,90.8 L419.9,89.9 L420.4,89.1 L420.9,88.3 L421.3,87.5
		L421.8,86.7 L422.3,85.9 L422.7,85.2 L423.2,84.4 L423.7,83.7 L424.1,83.0 L424.6,82.4 L425.1,81.7
		L425.5,81.1 L426.0,80.5 L426.5,79.9 L426.9,79.3 L427.4,78.7 L427.9,78.2 L428.3,77.7 L428.8,77.2
		L429.3,76.7 L429.7,76.2 L430.2,75.8 L430.7,75.4 L431.1,74.9 L431.6,74.6 L432.1,74.2 L432.5,73.8
		L433.0,73.5 L433.5,73.2 L433.9,72.9 L434.4,72.6 L434.9,72.4 L435.3,72.1 L435.8,71.9 L436.3,71.7
		L436.7,71.6 L437.2,71.4 L437.7,71.3 L438.1,71.2 L438.6,71.1 L439.1,71.0 L439.5,71.0 L440.0,70.9
		L440.5,70.9 L440.9,71.0 L441.4,71.0 L441.9,71.1 L442.3,71.1 L442.8,71.2 L443.3,71.4 L443.7,71.5
		L444.2,71.7 L444.7,71.9 L445.1,72.1 L445.6,72.3 L446.1,72.6 L446.5,72.8 L447.0,73.1 L447.5,73.4
		L447.9,73.8 L448.4,74.1 L448.9,74.5 L449.3,74.9 L449.8,75.3 L450.3,75.8 L450.7,76.2 L451.2,76.7
		L451.7,77.2 L452.1,77.7 L452.6,78.3 L453.1,78.8 L453.5,79.4 L454.0,80.0 L454.5,80.7 L454.9,81.3
		L455.4,82.0 L455.9,82.7 L456.3,83.4 L456.8,84.1 L457.3,84.9 L457.7,85.7 L458.2,86.4 L458.7,87.3
		L459.1,88.1 L459.6,89.0 L460.1,89.8 L460.5,90.7 L461.0,91.6 L461.5,92.5 L461.9,93.4 L462.4,94.3
		L462.9,95.3 L463.3,96.3 L463.8,97.2 L464.3,98.2 L464.7,99.2 L465.2,100.3 L465.7,101.3 L466.1,102.3
		L466.6,103.4 L467.1,104.5 L467.5,105.6 L468.0,106.7 L468.5,107.8 L468.9,109.0 L469.4,110.1 L469.9,111.3
		L470.3,112.5 L470.8,113.7 L471.3,114.9 L471.7,116.1 L472.2,117.3 L472.7,118.6 L473.1,119.8 L473.6,121.1
		L474.1,122.4 L474.5,123.7 L475.0,125.1 L475.5,126.4 L475.9,127.8 L476.4,129.1 L476.9,130.5 L477.3,131.9
		L477.8,133.3 L478.3,134.8 L478.7,136.2 L479.2,137.6 L479.7,139.1 L480.1,140.6 L480.6,142.1 L481.1,143.6
		L481.5,145.1 L482.0,146.7 L482.5,148.2 L482.9,149.8 L483.4,151.4 L483.9,153.0 L484.3,154.6 L484.8,156.2
		L485.3,157.7 L485.7,159.3 L486.2,160.9 L486.7,162.5 L487.1,164.1 L487.6,165.7 L488.1,167.3 L488.5,168.9
		L489.0,170.5 L489.5,172.1 L489.9,173.7 L490.4,175.4 L490.9,177.0 L491.3,178.6 L491.8,180.2 L492.3,181.8
		L492.7,183.4 L493.2,185.0 L493.7,186.7 L494.1,188.3 L494.6,189.9 L495.1,191.5 L495.5,193.2 L496.0,194.8
		L496.5,196.4 L496.9,198.1 L497.4,199.7 L497.9,201.3 L498.3,203.0 L498.8,204.6 L499.3,206.3 L499.7,207.9
		L500.2,209.6 L500.7,211.2 L501.1,212.9 L501.6,214.5 L502.1,216.2 L502.5,217.8 L503.0,219.5 L503.5,221.1
		L503.9,222.8 L504.4,224.5 L504.9,226.1 L505.3,227.8 L505.8,229.4 L506.3,231.1 L506.7,232.8 L507.2,234.5
		L507.7,236.1 L508.2,237.8 L508.6,239.5 L509.1,241.1 L509.5,242.7 L510.0,244.4 L510.5,246.0 L510.9,247.6
		L511.4,249.1 L511.9,250.7 L512.3,252.3 L512.8,253.8 L513.3,255.4 L513.7,256.9 L514.2,258.4 L514.7,259.9
		L515.1,261.4 L515.6,262.9 L516.1,264.4 L516.5,265.8 L517.0,267.3 L517.5,268.7 L517.9,270.1 L518.4,271.5
		L518.9,272.9 L519.4,274.3 L519.8,275.7 L520.3,277.1 L520.7,278.4 L521.2,279.8 L521.7,281.1 L522.1,282.4
		L522.6,283.7 L523.1,285.0 L523.6,286.3 L524.0,287.5 L524.5,288.8 L524.9,290.1 L525.4,291.3 L525.9,292.5
		L526.3,293.7 L526.8,294.9 L527.3,296.1 L527.8,297.3 L528.2,298.5 L528.7,299.6 L529.1,300.8 L529.6,301.9
		L530.1,303.0 L530.5,304.1 L531.0,305.2 L531.5,306.3 L532.0,307.4 L532.4,308.4 L532.9,309.5 L533.3,310.5
		L533.8,311.5 L534.3,312.5 L534.8,313.4 L535.2,314.4 L535.7,315.3 L536.2,316.2 L536.6,317.1 L537.1,317.9
		L537.5,318.7 L538.0,319.6 L538.5,320.4 L539.0,321.1 L539.4,321.9 L539.9,322.6 L540.4,323.3 L540.8,324.0
		L541.3,324.7 L541.7,325.4 L542.2,326.0 L542.7,326.6 L543.2,327.2 L543.6,327.8 L544.1,328.4 L544.6,328.9
		L545.0,329.4 L545.5,329.9 L546.0,330.4 L546.4,330.8 L546.9,331.3 L547.4,331.7 L547.8,332.1 L548.3,332.4
		L548.8,332.8 L549.2,333.1 L549.7,333.4 L550.2,333.7 L550.6,334.0 L551.1,334.3 L551.6,334.5 L552.0,334.7
		L552.5,334.9 L553.0,335.1 L553.4,335.2 L553.9,335.4 L554.4,335.5 L554.8,335.6 L555.3,335.6 L555.8,335.7
		L556.2,335.7 L556.7,335.7  '/></g>
	</g>
	<g id="gnuplot_plot_2" ><title>-cos(x)+1</title>
<g fill="none" color="black" stroke="currentColor" stroke-width="1.00" stroke-linecap="butt" stroke-linejoin="miter">
	<g transform="translate(423.0,465.9)" stroke="none" fill="black" font-family="Arial" font-size="12.00"  text-anchor="end">
		<text><tspan font-family="Arial" >-cos(x)+1</tspan></text>
	</g>
</g>
<g fill="none" color="black" stroke="currentColor" stroke-width="1.00" stroke-linecap="butt" stroke-linejoin="miter">
	<use xlink:href='#gpPt1' transform='translate(90.5,335.7) scale(4.50)' color='rgb(  0,   0,   0)'/>
	<use xlink:href='#gpPt1' transform='translate(115.0,306.7) scale(4.50)' color='rgb(  0,   0,   0)'/>
	<use xlink:href='#gpPt1' transform='translate(139.5,232.1) scale(4.50)' color='rgb(  0,   0,   0)'/>
	<use xlink:href='#gpPt1' transform='translate(164.1,143.2) scale(4.50)' color='rgb(  0,   0,   0)'/>
	<use xlink:href='#gpPt1' transform='translate(188.6,77.5) scale(4.50)' color='rgb(  0,   0,   0)'/>
	<use xlink:href='#gpPt1' transform='translate(213.1,62.8) scale(4.50)' color='rgb(  0,   0,   0)'/>
	<use xlink:href='#gpPt1' transform='translate(237.7,105.3) scale(4.50)' color='rgb(  0,   0,   0)'/>
	<use xlink:href='#gpPt1' transform='translate(262.2,187.0) scale(4.50)' color='rgb(  0,   0,   0)'/>
	<use xlink:href='#gpPt1' transform='translate(286.8,273.5) scale(4.50)' color='rgb(  0,   0,   0)'/>
	<use xlink:href='#gpPt1' transform='translate(311.3,328.3) scale(4.50)' color='rgb(  0,   0,   0)'/>
	<use xlink:href='#gpPt1' transform='translate(335.8,328.3) scale(4.50)' color='rgb(  0,   0,   0)'/>
	<use xlink:href='#gpPt1' transform='translate(360.4,273.5) scale(4.50)' color='rgb(  0,   0,   0)'/>
	<use xlink:href='#gpPt1' transform='translate(384.9,187.0) scale(4.50)' color='rgb(  0,   0,   0)'/>
	<use xlink:href='#gpPt1' transform='translate(409.5,105.3) scale(4.50)' color='rgb(  0,   0,   0)'/>
	<use xlink:href='#gpPt1' transform='translate(434.0,62.8) scale(4.50)' color='rgb(  0,   0,   0)'/>
	<use xlink:href='#gpPt1' transform='translate(458.5,77.5) scale(4.50)' color='rgb(  0,   0,   0)'/>
	<use xlink:href='#gpPt1' transform='translate(483.1,143.2) scale(4.50)' color='rgb(  0,   0,   0)'/>
	<use xlink:href='#gpPt1' transform='translate(507.6,232.1) scale(4.50)' color='rgb(  0,   0,   0)'/>
	<use xlink:href='#gpPt1' transform='translate(532.1,306.7) scale(4.50)' color='rgb(  0,   0,   0)'/>
	<use xlink:href='#gpPt1' transform='translate(556.7,335.7) scale(4.50)' color='rgb(  0,   0,   0)'/>
	<use xlink:href='#gpPt1' transform='translate(452.4,462.0) scale(4.50)' color='rgb(  0,   0,   0)'/>
</g>
	</g>
<g fill="none" color="white" stroke="rgb(  0,   0,   0)" stroke-width="2.00" stroke-linecap="butt" stroke-linejoin="miter">
</g>
<g fill="none" color="black" stroke="currentColor" stroke-width="2.00" stroke-linecap="butt" stroke-linejoin="miter">
</g>
<g fill="none" color="black" stroke="black" stroke-width="1.00" stroke-linecap="butt" stroke-linejoin="miter">
</g>
<g fill="none" color="black" stroke="currentColor" stroke-width="1.00" stroke-linecap="butt" stroke-linejoin="miter">
	<path stroke='black'  d='M71.9,54.1 L71.9,404.4 L575.0,404.4 L575.0,54.1 L71.9,54.1 Z  '/></g>
<g fill="none" color="black" stroke="currentColor" stroke-width="1.00" stroke-linecap="butt" stroke-linejoin="miter">
</g>
</g>
</svg>

