<?xml version="1.0" encoding="utf-8"  standalone="no"?>
<svg 
 width="600" height="480"
 viewBox="0 0 600 480"
 xmlns="http://www.w3.org/2000/svg"
 xmlns:xlink="http://www.w3.org/1999/xlink"
>

<title>Gnuplot</title>
<desc>Produced by GNUPLOT 5.2 patchlevel 2 </desc>

<g id="gnuplot_canvas">

<rect x="0" y="0" width="600" height="480" fill="none"/>
<defs>

	<circle id='gpDot' r='0.5' stroke-width='0.5'/>
	<path id='gpPt0' stroke-width='0.222' stroke='currentColor' d='M-1,0 h2 M0,-1 v2'/>
	<path id='gpPt1' stroke-width='0.222' stroke='currentColor' d='M-1,-1 L1,1 M1,-1 L-1,1'/>
	<path id='gpPt2' stroke-width='0.222' stroke='currentColor' d='M-1,0 L1,0 M0,-1 L0,1 M-1,-1 L1,1 M-1,1 L1,-1'/>
	<rect id='gpPt3' stroke-width='0.222' stroke='currentColor' x='-1' y='-1' width='2' height='2'/>
	<rect id='gpPt4' stroke-width='0.222' stroke='currentColor' fill='currentColor' x='-1' y='-1' width='2' height='2'/>
	<circle id='gpPt5' stroke-width='0.222' stroke='currentColor' cx='0' cy='0' r='1'/>
	<use xlink:href='#gpPt5' id='gpPt6' fill='currentColor' stroke='none'/>
	<path id='gpPt7' stroke-width='0.222' stroke='currentColor' d='M0,-1.33 L-1.33,0.67 L1.33,0.67 z'/>
	<use xlink:href='#gpPt7' id='gpPt8' fill='currentColor' stroke='none'/>
	<use xlink:href='#gpPt7' id='gpPt9' stroke='currentColor' transform='rotate(180)'/>
	<use xlink:href='#gpPt9' id='gpPt10' fill='currentColor' stroke='none'/>
	<use xlink:href='#gpPt3' id='gpPt11' stroke='currentColor' transform='rotate(45)'/>
	<use xlink:href='#gpPt11' id='gpPt12' fill='currentColor' stroke='none'/>
	<path id='gpPt13' stroke-width='0.222' stroke='currentColor' d='M0,1.330 L1.265,0.411 L0.782,-1.067 L-0.782,-1.076 L-1.265,0.411 z'/>
	<use xlink:href='#gpPt13' id='gpPt14' fill='currentColor' stroke='none'/>
	<filter id='textbox' filterUnits='objectBoundingBox' x='0' y='0' height='1' width='1'>
	  <feFlood flood-color='white' flood-opacity='1' result='bgnd'/>
	  <feComposite in='SourceGraphic' in2='bgnd' operator='atop'/>
	</filter>
	<filter id='greybox' filterUnits='objectBoundingBox' x='0' y='0' height='1' width='1'>
	  <feFlood flood-color='lightgrey' flood-opacity='1' result='grey'/>
	  <feComposite in='SourceGraphic' in2='grey' operator='atop'/>
	</filter>
</defs>
<g fill="none" color="white" stroke="black" stroke-width="1.00" stroke-linecap="butt" stroke-linejoin="miter">
</g>
<g fill="none" color="black" stroke="currentColor" stroke-width="1.00" stroke-linecap="butt" stroke-linejoin="miter">
</g>
<g fill="none" color="black" stroke="black" stroke-width="0.50" stroke-linecap="butt" stroke-linejoin="miter">
</g>
<g fill="none" color="gray" stroke="currentColor" stroke-width="0.50" stroke-linecap="butt" stroke-linejoin="miter">
	<path stroke='gray' stroke-dasharray='2,4' class="gridline"  d='M71.9,388.5 L575.0,388.5  '/></g>
<g fill="none" color="gray" stroke="gray" stroke-width="1.00" stroke-linecap="butt" stroke-linejoin="miter">
</g>
<g fill="none" color="black" stroke="currentColor" stroke-width="1.00" stroke-linecap="butt" stroke-linejoin="miter">
	<path stroke='black'  d='M71.9,388.5 L80.9,388.5 M575.0,388.5 L566.0,388.5  '/>	<g transform="translate(63.6,392.4)" stroke="none" fill="black" font-family="Arial" font-size="12.00"  text-anchor="end">
		<text><tspan font-family="Arial" > 0</tspan></text>
	</g>
</g>
<g fill="none" color="black" stroke="currentColor" stroke-width="1.00" stroke-linecap="butt" stroke-linejoin="miter">
</g>
<g fill="none" color="black" stroke="black" stroke-width="0.50" stroke-linecap="butt" stroke-linejoin="miter">
</g>
<g fill="none" color="gray" stroke="currentColor" stroke-width="0.50" stroke-linecap="butt" stroke-linejoin="miter">
	<path stroke='gray' stroke-dasharray='2,4' class="gridline"  d='M71.9,308.9 L575.0,308.9  '/></g>
<g fill="none" color="gray" stroke="gray" stroke-width="1.00" stroke-linecap="butt" stroke-linejoin="miter">
</g>
<g fill="none" color="black" stroke="currentColor" stroke-width="1.00" stroke-linecap="butt" stroke-linejoin="miter">
	<path stroke='black'  d='M71.9,308.9 L80.9,308.9 M575.0,308.9 L566.0,308.9  '/>	<g transform="translate(63.6,312.8)" stroke="none" fill="black" font-family="Arial" font-size="12.00"  text-anchor="end">
		<text><tspan font-family="Arial" > 0.5</tspan></text>
	</g>
</g>
<g fill="none" color="black" stroke="currentColor" stroke-width="1.00" stroke-linecap="butt" stroke-linejoin="miter">
</g>
<g fill="none" color="black" stroke="black" stroke-width="0.50" stroke-linecap="butt" stroke-linejoin="miter">
</g>
<g fill="none" color="gray" stroke="currentColor" stroke-width="0.50" stroke-linecap="butt" stroke-linejoin="miter">
	<path stroke='gray' stroke-dasharray='2,4' class="gridline"  d='M71.9,229.2 L575.0,229.2  '/></g>
<g fill="none" color="gray" stroke="gray" stroke-width="1.00" stroke-linecap="butt" stroke-linejoin="miter">
</g>
<g fill="none" color="black" stroke="currentColor" stroke-width="1.00" stroke-linecap="butt" stroke-linejoin="miter">
	<path stroke='black'  d='M71.9,229.2 L80.9,229.2 M575.0,229.2 L566.0,229.2  '/>	<g transform="translate(63.6,233.1)" stroke="none" fill="black" font-family="Arial" font-size="12.00"  text-anchor="end">
		<text><tspan font-family="Arial" > 1</tspan></text>
	</g>
</g>
<g fill="none" color="black" stroke="currentColor" stroke-width="1.00" stroke-linecap="butt" stroke-linejoin="miter">
</g>
<g fill="none" color="black" stroke="black" stroke-width="0.50" stroke-linecap="butt" stroke-linejoin="miter">
</g>
<g fill="none" color="gray" stroke="currentColor" stroke-width="0.50" stroke-linecap="butt" stroke-linejoin="miter">
	<path stroke='gray' stroke-dasharray='2,4' class="gridline"  d='M71.9,149.6 L575.0,149.6  '/></g>
<g fill="none" color="gray" stroke="gray" stroke-width="1.00" stroke-linecap="butt" stroke-linejoin="miter">
</g>
<g fill="none" color="black" stroke="currentColor" stroke-width="1.00" stroke-linecap="butt" stroke-linejoin="miter">
	<path stroke='black'  d='M71.9,149.6 L80.9,149.6 M575.0,149.6 L566.0,149.6  '/>	<g transform="translate(63.6,153.5)" stroke="none" fill="black" font-family="Arial" font-size="12.00"  text-anchor="end">
		<text><tspan font-family="Arial" > 1.5</tspan></text>
	</g>
</g>
<g fill="none" color="black" stroke="currentColor" stroke-width="1.00" stroke-linecap="butt" stroke-linejoin="miter">
</g>
<g fill="none" color="black" stroke="black" stroke-width="0.50" stroke-linecap="butt" stroke-linejoin="miter">
</g>
<g fill="none" color="gray" stroke="currentColor" stroke-width="0.50" stroke-linecap="butt" stroke-linejoin="miter">
	<path stroke='gray' stroke-dasharray='2,4' class="gridline"  d='M71.9,70.0 L575.0,70.0  '/></g>
<g fill="none" color="gray" stroke="gray" stroke-width="1.00" stroke-linecap="butt" stroke-linejoin="miter">
</g>
<g fill="none" color="black" stroke="currentColor" stroke-width="1.00" stroke-linecap="butt" stroke-linejoin="miter">
	<path stroke='black'  d='M71.9,70.0 L80.9,70.0 M575.0,70.0 L566.0,70.0  '/>	<g transform="translate(63.6,73.9)" stroke="none" fill="black" font-family="Arial" font-size="12.00"  text-anchor="end">
		<text><tspan font-family="Arial" > 2</tspan></text>
	</g>
</g>
<g fill="none" color="black" stroke="currentColor" stroke-width="1.00" stroke-linecap="butt" stroke-linejoin="miter">
</g>
<g fill="none" color="black" stroke="black" stroke-width="0.50" stroke-linecap="butt" stroke-linejoin="miter">
</g>
<g fill="none" color="gray" stroke="currentColor" stroke-width="0.50" stroke-linecap="butt" stroke-linejoin="miter">
	<path stroke='gray' stroke-dasharray='2,4' class="gridline"  d='M90.5,404.4 L90.5,54.1  '/></g>
<g fill="none" color="gray" stroke="gray" stroke-width="1.00" stroke-linecap="butt" stroke-linejoin="miter">
</g>
<g fill="none" color="black" stroke="currentColor" stroke-width="1.00" stroke-linecap="butt" stroke-linejoin="miter">
	<path stroke='black'  d='M90.5,404.4 L90.5,395.4 M90.5,54.1 L90.5,63.1  '/>	<g transform="translate(90.5,426.3)" stroke="none" fill="black" font-family="Arial" font-size="12.00"  text-anchor="middle">
		<text><tspan font-family="Arial" > 0</tspan></text>
	</g>
</g>
<g fill="none" color="black" stroke="currentColor" stroke-width="1.00" stroke-linecap="butt" stroke-linejoin="miter">
</g>
<g fill="none" color="black" stroke="black" stroke-width="0.50" stroke-linecap="butt" stroke-linejoin="miter">
</g>
<g fill="none" color="gray" stroke="currentColor" stroke-width="0.50" stroke-linecap="butt" stroke-linejoin="miter">
	<path stroke='gray' stroke-dasharray='2,4' class="gridline"  d='M164.7,404.4 L164.7,54.1  '/></g>
<g fill="none" color="gray" stroke="gray" stroke-width="1.00" stroke-linecap="butt" stroke-linejoin="miter">
</g>
<g fill="none" color="black" stroke="currentColor" stroke-width="1.00" stroke-linecap="butt" stroke-linejoin="miter">
	<path stroke='black'  d='M164.7,404.4 L164.7,395.4 M164.7,54.1 L164.7,63.1  '/>	<g transform="translate(164.7,426.3)" stroke="none" fill="black" font-family="Arial" font-size="12.00"  text-anchor="middle">
		<text><tspan font-family="Arial" > 2</tspan></text>
	</g>
</g>
<g fill="none" color="black" stroke="currentColor" stroke-width="1.00" stroke-linecap="butt" stroke-linejoin="miter">
</g>
<g fill="none" color="black" stroke="black" stroke-width="0.50" stroke-linecap="butt" stroke-linejoin="miter">
</g>
<g fill="none" color="gray" stroke="currentColor" stroke-width="0.50" stroke-linecap="butt" stroke-linejoin="miter">
	<path stroke='gray' stroke-dasharray='2,4' class="gridline"  d='M238.9,404.4 L238.9,54.1  '/></g>
<g fill="none" color="gray" stroke="gray" stroke-width="1.00" stroke-linecap="butt" stroke-linejoin="miter">
</g>
<g fill="none" color="black" stroke="currentColor" stroke-width="1.00" stroke-linecap="butt" stroke-linejoin="miter">
	<path stroke='black'  d='M238.9,404.4 L238.9,395.4 M238.9,54.1 L238.9,63.1  '/>	<g transform="translate(238.9,426.3)" stroke="none" fill="black" font-family="Arial" font-size="12.00"  text-anchor="middle">
		<text><tspan font-family="Arial" > 4</tspan></text>
	</g>
</g>
<g fill="none" color="black" stroke="currentColor" stroke-width="1.00" stroke-linecap="butt" stroke-linejoin="miter">
</g>
<g fill="none" color="black" stroke="black" stroke-width="0.50" stroke-linecap="butt" stroke-linejoin="miter">
</g>
<g fill="none" color="gray" stroke="currentColor" stroke-width="0.50" stroke-linecap="butt" stroke-linejoin="miter">
	<path stroke='gray' stroke-dasharray='2,4' class="gridline"  d='M313.1,404.4 L313.1,54.1  '/></g>
<g fill="none" color="gray" stroke="gray" stroke-width="1.00" stroke-linecap="butt" stroke-linejoin="miter">
</g>
<g fill="none" color="black" stroke="currentColor" stroke-width="1.00" stroke-linecap="butt" stroke-linejoin="miter">
	<path stroke='black'  d='M313.1,404.4 L313.1,395.4 M313.1,54.1 L313.1,63.1  '/>	<g transform="translate(313.1,426.3)" stroke="none" fill="black" font-family="Arial" font-size="12.00"  text-anchor="middle">
		<text><tspan font-family="Arial" > 6</tspan></text>
	</g>
</g>
<g fill="none" color="black" stroke="currentColor" stroke-width="1.00" stroke-linecap="butt" stroke-linejoin="miter">
</g>
<g fill="none" color="black" stroke="black" stroke-width="0.50" stroke-linecap="butt" stroke-linejoin="miter">
</g>
<g fill="none" color="gray" stroke="currentColor" stroke-width="0.50" stroke-linecap="butt" stroke-linejoin="miter">
	<path stroke='gray' stroke-dasharray='2,4' class="gridline"  d='M387.3,404.4 L387.3,54.1  '/></g>
<g fill="none" color="gray" stroke="gray" stroke-width="1.00" stroke-linecap="butt" stroke-linejoin="miter">
</g>
<g fill="none" color="black" stroke="currentColor" stroke-width="1.00" stroke-linecap="butt" stroke-linejoin="miter">
	<path stroke='black'  d='M387.3,404.4 L387.3,395.4 M387.3,54.1 L387.3,63.1  '/>	<g transform="translate(387.3,426.3)" stroke="none" fill="black" font-family="Arial" font-size="12.00"  text-anchor="middle">
		<text><tspan font-family="Arial" > 8</tspan></text>
	</g>
</g>
<g fill="none" color="black" stroke="currentColor" stroke-width="1.00" stroke-linecap="butt" stroke-linejoin="miter">
</g>
<g fill="none" color="black" stroke="black" stroke-width="0.50" stroke-linecap="butt" stroke-linejoin="miter">
</g>
<g fill="none" color="gray" stroke="currentColor" stroke-width="0.50" stroke-linecap="butt" stroke-linejoin="miter">
	<path stroke='gray' stroke-dasharray='2,4' class="gridline"  d='M461.5,404.4 L461.5,54.1  '/></g>
<g fill="none" color="gray" stroke="gray" stroke-width="1.00" stroke-linecap="butt" stroke-linejoin="miter">
</g>
<g fill="none" color="black" stroke="currentColor" stroke-width="1.00" stroke-linecap="butt" stroke-linejoin="miter">
	<path stroke='black'  d='M461.5,404.4 L461.5,395.4 M461.5,54.1 L461.5,63.1  '/>	<g transform="translate(461.5,426.3)" stroke="none" fill="black" font-family="Arial" font-size="12.00"  text-anchor="middle">
		<text><tspan font-family="Arial" > 10</tspan></text>
	</g>
</g>
<g fill="none" color="black" stroke="currentColor" stroke-width="1.00" stroke-linecap="butt" stroke-linejoin="miter">
</g>
<g fill="none" color="black" stroke="black" stroke-width="0.50" stroke-linecap="butt" stroke-linejoin="miter">
</g>
<g fill="none" color="gray" stroke="currentColor" stroke-width="0.50" stroke-linecap="butt" stroke-linejoin="miter">
	<path stroke='gray' stroke-dasharray='2,4' class="gridline"  d='M535.7,404.4 L535.7,54.1  '/></g>
<g fill="none" color="gray" stroke="gray" stroke-width="1.00" stroke-linecap="butt" stroke-linejoin="miter">
</g>
<g fill="none" color="black" stroke="currentColor" stroke-width="1.00" stroke-linecap="butt" stroke-linejoin="miter">
	<path stroke='black'  d='M535.7,404.4 L535.7,395.4 M535.7,54.1 L535.7,63.1  '/>	<g transform="translate(535.7,426.3)" stroke="none" fill="black" font-family="Arial" font-size="12.00"  text-anchor="middle">
		<text><tspan font-family="Arial" > 12</tspan></text>
	</g>
</g>
<g fill="none" color="black" stroke="currentColor" stroke-width="1.00" stroke-linecap="butt" stroke-linejoin="miter">
</g>
<g fill="none" color="black" stroke="currentColor" stroke-width="1.00" stroke-linecap="butt" stroke-linejoin="miter">
	<path stroke='black'  d='M71.9,54.1 L71.9,404.4 L575.0,404.4 L575.0,54.1 L71.9,54.1 Z  '/></g>
<g fill="none" color="black" stroke="currentColor" stroke-width="1.00" stroke-linecap="butt" stroke-linejoin="miter">
	<g transform="translate(16.3,229.3) rotate(270)" stroke="none" fill="black" font-family="Arial" font-size="12.00"  text-anchor="middle">
		<text><tspan font-family="Arial" >y</tspan></text>
	</g>
</g>
<g fill="none" color="black" stroke="currentColor" stroke-width="1.00" stroke-linecap="butt" stroke-linejoin="miter">
	<g transform="translate(323.4,453.3)" stroke="none" fill="black" font-family="Arial" font-size="12.00"  text-anchor="middle">
		<text><tspan font-family="Arial" >x</tspan></text>
	</g>
</g>
<g fill="none" color="black" stroke="currentColor" stroke-width="1.00" stroke-linecap="butt" stroke-linejoin="miter">
	<g transform="translate(323.4,31.0)" stroke="none" fill="black" font-family="Arial" font-size="12.00"  text-anchor="middle">
		<text><tspan font-family="Arial" >integrated quadratic spline between data points from sin</tspan></text>
	</g>
</g>
	<g id="gnuplot_plot_1" ><title>Interpolated</title>
<g fill="none" color="black" stroke="currentColor" stroke-width="1.00" stroke-linecap="butt" stroke-linejoin="miter">
	<g transform="translate(264.6,465.9)" stroke="none" fill="black" font-family="Arial" font-size="12.00"  text-anchor="end">
		<text><tspan font-family="Arial" >Interpolated</tspan></text>
	</g>
</g>
<g fill="none" color="black" stroke="currentColor" stroke-width="1.00" stroke-linecap="butt" stroke-linejoin="miter">
	<path stroke='rgb(255,   0,   0)'  d='M272.9,462.0 L315.1,462.0 M90.5,388.5 L92.8,388.1 L95.1,387.2 L97.5,385.6 L99.8,383.3 L102.2,380.5
		L104.5,377.1 L106.9,373.1 L109.2,368.5 L111.5,363.4 L113.9,357.7 L116.2,351.5 L118.6,344.9 L120.9,337.7
		L123.3,330.1 L125.6,322.1 L127.9,313.8 L130.3,305.1 L132.6,296.1 L135.0,286.8 L137.3,277.4 L139.7,267.7
		L142.0,257.9 L144.3,247.9 L146.7,237.9 L149.0,227.8 L151.4,217.8 L153.7,207.7 L156.1,197.8 L158.4,188.0
		L160.7,178.4 L163.1,168.9 L165.4,159.8 L167.8,150.8 L170.1,142.3 L172.5,134.0 L174.8,126.1 L177.1,118.7
		L179.5,111.6 L181.8,105.0 L184.2,99.0 L186.5,93.4 L188.9,88.4 L191.2,83.9 L193.5,80.1 L195.9,76.8
		L198.2,74.2 L200.6,72.2 L202.9,70.7 L205.3,69.9 L207.6,69.7 L209.9,70.2 L212.3,71.3 L214.6,73.0
		L217.0,75.4 L219.3,78.4 L221.7,82.0 L224.0,86.2 L226.3,90.9 L228.7,96.2 L231.0,102.0 L233.4,108.3
		L235.7,115.0 L238.1,122.3 L240.4,130.0 L242.7,138.0 L245.1,146.5 L247.4,155.3 L249.8,164.3 L252.1,173.7
		L254.5,183.2 L256.8,192.9 L259.1,202.8 L261.5,212.7 L263.8,222.8 L266.2,232.8 L268.5,242.9 L270.9,252.9
		L273.2,262.8 L275.5,272.5 L277.9,282.1 L280.2,291.5 L282.6,300.7 L284.9,309.5 L287.3,318.0 L289.6,326.2
		L291.9,333.9 L294.3,341.3 L296.6,348.2 L299.0,354.6 L301.3,360.6 L303.7,366.0 L306.0,370.9 L308.3,375.2
		L310.7,379.0 L313.0,382.1 L315.4,384.6 L317.7,386.4 L320.1,387.7 L322.4,388.3 L324.7,388.3 L327.1,387.7
		L329.4,386.4 L331.8,384.6 L334.1,382.1 L336.5,379.0 L338.8,375.2 L341.1,370.9 L343.5,366.0 L345.8,360.6
		L348.2,354.6 L350.5,348.2 L352.9,341.3 L355.2,333.9 L357.5,326.2 L359.9,318.0 L362.2,309.5 L364.6,300.7
		L366.9,291.5 L369.3,282.1 L371.6,272.5 L373.9,262.8 L376.3,252.9 L378.6,242.9 L381.0,232.8 L383.3,222.8
		L385.7,212.7 L388.0,202.8 L390.3,192.9 L392.7,183.2 L395.0,173.7 L397.4,164.3 L399.7,155.3 L402.1,146.5
		L404.4,138.0 L406.7,130.0 L409.1,122.3 L411.4,115.0 L413.8,108.3 L416.1,102.0 L418.5,96.2 L420.8,90.9
		L423.1,86.2 L425.5,82.0 L427.8,78.4 L430.2,75.4 L432.5,73.0 L434.9,71.3 L437.2,70.2 L439.5,69.7
		L441.9,69.9 L444.2,70.7 L446.6,72.2 L448.9,74.2 L451.3,76.8 L453.6,80.1 L455.9,83.9 L458.3,88.4
		L460.6,93.4 L463.0,99.0 L465.3,105.0 L467.7,111.6 L470.0,118.7 L472.3,126.1 L474.7,134.0 L477.0,142.3
		L479.4,150.8 L481.7,159.8 L484.1,168.9 L486.4,178.4 L488.7,188.0 L491.1,197.8 L493.4,207.7 L495.8,217.8
		L498.1,227.8 L500.5,237.9 L502.8,247.9 L505.1,257.9 L507.5,267.7 L509.8,277.4 L512.2,286.8 L514.5,296.1
		L516.9,305.1 L519.2,313.8 L521.5,322.1 L523.9,330.1 L526.2,337.7 L528.6,344.9 L530.9,351.5 L533.3,357.7
		L535.6,363.4 L537.9,368.5 L540.3,373.1 L542.6,377.1 L545.0,380.5 L547.3,383.3 L549.7,385.6 L552.0,387.2
		L554.3,388.1 L556.7,388.5  '/></g>
	</g>
	<g id="gnuplot_plot_2" ><title>-cos(x)+1</title>
<g fill="none" color="black" stroke="currentColor" stroke-width="1.00" stroke-linecap="butt" stroke-linejoin="miter">
	<g transform="translate(423.0,465.9)" stroke="none" fill="black" font-family="Arial" font-size="12.00"  text-anchor="end">
		<text><tspan font-family="Arial" >-cos(x)+1</tspan></text>
	</g>
</g>
<g fill="none" color="black" stroke="currentColor" stroke-width="1.00" stroke-linecap="butt" stroke-linejoin="miter">
	<use xlink:href='#gpPt1' transform='translate(90.5,388.5) scale(4.50)' color='rgb(  0,   0,   0)'/>
	<use xlink:href='#gpPt1' transform='translate(115.0,354.9) scale(4.50)' color='rgb(  0,   0,   0)'/>
	<use xlink:href='#gpPt1' transform='translate(139.5,268.3) scale(4.50)' color='rgb(  0,   0,   0)'/>
	<use xlink:href='#gpPt1' transform='translate(164.1,165.3) scale(4.50)' color='rgb(  0,   0,   0)'/>
	<use xlink:href='#gpPt1' transform='translate(188.6,89.2) scale(4.50)' color='rgb(  0,   0,   0)'/>
	<use xlink:href='#gpPt1' transform='translate(213.1,72.2) scale(4.50)' color='rgb(  0,   0,   0)'/>
	<use xlink:href='#gpPt1' transform='translate(237.7,121.4) scale(4.50)' color='rgb(  0,   0,   0)'/>
	<use xlink:href='#gpPt1' transform='translate(262.2,216.1) scale(4.50)' color='rgb(  0,   0,   0)'/>
	<use xlink:href='#gpPt1' transform='translate(286.8,316.3) scale(4.50)' color='rgb(  0,   0,   0)'/>
	<use xlink:href='#gpPt1' transform='translate(311.3,379.8) scale(4.50)' color='rgb(  0,   0,   0)'/>
	<use xlink:href='#gpPt1' transform='translate(335.8,379.8) scale(4.50)' color='rgb(  0,   0,   0)'/>
	<use xlink:href='#gpPt1' transform='translate(360.4,316.3) scale(4.50)' color='rgb(  0,   0,   0)'/>
	<use xlink:href='#gpPt1' transform='translate(384.9,216.1) scale(4.50)' color='rgb(  0,   0,   0)'/>
	<use xlink:href='#gpPt1' transform='translate(409.5,121.4) scale(4.50)' color='rgb(  0,   0,   0)'/>
	<use xlink:href='#gpPt1' transform='translate(434.0,72.2) scale(4.50)' color='rgb(  0,   0,   0)'/>
	<use xlink:href='#gpPt1' transform='translate(458.5,89.2) scale(4.50)' color='rgb(  0,   0,   0)'/>
	<use xlink:href='#gpPt1' transform='translate(483.1,165.3) scale(4.50)' color='rgb(  0,   0,   0)'/>
	<use xlink:href='#gpPt1' transform='translate(507.6,268.3) scale(4.50)' color='rgb(  0,   0,   0)'/>
	<use xlink:href='#gpPt1' transform='translate(532.1,354.9) scale(4.50)' color='rgb(  0,   0,   0)'/>
	<use xlink:href='#gpPt1' transform='translate(556.7,388.5) scale(4.50)' color='rgb(  0,   0,   0)'/>
	<use xlink:href='#gpPt1' transform='translate(452.4,462.0) scale(4.50)' color='rgb(  0,   0,   0)'/>
</g>
	</g>
<g fill="none" color="white" stroke="rgb(  0,   0,   0)" stroke-width="2.00" stroke-linecap="butt" stroke-linejoin="miter">
</g>
<g fill="none" color="black" stroke="currentColor" stroke-width="2.00" stroke-linecap="butt" stroke-linejoin="miter">
</g>
<g fill="none" color="black" stroke="black" stroke-width="1.00" stroke-linecap="butt" stroke-linejoin="miter">
</g>
<g fill="none" color="black" stroke="currentColor" stroke-width="1.00" stroke-linecap="butt" stroke-linejoin="miter">
	<path stroke='black'  d='M71.9,54.1 L71.9,404.4 L575.0,404.4 L575.0,54.1 L71.9,54.1 Z  '/></g>
<g fill="none" color="black" stroke="currentColor" stroke-width="1.00" stroke-linecap="butt" stroke-linejoin="miter">
</g>
</g>
</svg>

